G04 Layer_Physical_Order=1*
G04 Layer_Color=255*
%FSLAX25Y25*%
%MOIN*%
G70*
G01*
G75*
%ADD10C,0.03000*%
%ADD11C,0.00600*%
%ADD12C,0.02000*%
%ADD13C,0.06000*%
%ADD14C,0.01000*%
G04:AMPARAMS|DCode=15|XSize=64.96mil|YSize=64.96mil|CornerRadius=16.24mil|HoleSize=0mil|Usage=FLASHONLY|Rotation=90.000|XOffset=0mil|YOffset=0mil|HoleType=Round|Shape=RoundedRectangle|*
%AMROUNDEDRECTD15*
21,1,0.06496,0.03248,0,0,90.0*
21,1,0.03248,0.06496,0,0,90.0*
1,1,0.03248,0.01624,0.01624*
1,1,0.03248,0.01624,-0.01624*
1,1,0.03248,-0.01624,-0.01624*
1,1,0.03248,-0.01624,0.01624*
%
%ADD15ROUNDEDRECTD15*%
%ADD16C,0.06496*%
%ADD17C,0.06299*%
G04:AMPARAMS|DCode=18|XSize=72.84mil|YSize=72.84mil|CornerRadius=18.21mil|HoleSize=0mil|Usage=FLASHONLY|Rotation=180.000|XOffset=0mil|YOffset=0mil|HoleType=Round|Shape=RoundedRectangle|*
%AMROUNDEDRECTD18*
21,1,0.07284,0.03642,0,0,180.0*
21,1,0.03642,0.07284,0,0,180.0*
1,1,0.03642,-0.01821,0.01821*
1,1,0.03642,0.01821,0.01821*
1,1,0.03642,0.01821,-0.01821*
1,1,0.03642,-0.01821,-0.01821*
%
%ADD18ROUNDEDRECTD18*%
%ADD19C,0.07284*%
%ADD20C,0.06000*%
%ADD21C,0.06515*%
%ADD22C,0.04772*%
G04:AMPARAMS|DCode=23|XSize=64.96mil|YSize=64.96mil|CornerRadius=16.24mil|HoleSize=0mil|Usage=FLASHONLY|Rotation=180.000|XOffset=0mil|YOffset=0mil|HoleType=Round|Shape=RoundedRectangle|*
%AMROUNDEDRECTD23*
21,1,0.06496,0.03248,0,0,180.0*
21,1,0.03248,0.06496,0,0,180.0*
1,1,0.03248,-0.01624,0.01624*
1,1,0.03248,0.01624,0.01624*
1,1,0.03248,0.01624,-0.01624*
1,1,0.03248,-0.01624,-0.01624*
%
%ADD23ROUNDEDRECTD23*%
G04:AMPARAMS|DCode=24|XSize=57mil|YSize=57mil|CornerRadius=14.25mil|HoleSize=0mil|Usage=FLASHONLY|Rotation=270.000|XOffset=0mil|YOffset=0mil|HoleType=Round|Shape=RoundedRectangle|*
%AMROUNDEDRECTD24*
21,1,0.05700,0.02850,0,0,270.0*
21,1,0.02850,0.05700,0,0,270.0*
1,1,0.02850,-0.01425,-0.01425*
1,1,0.02850,-0.01425,0.01425*
1,1,0.02850,0.01425,0.01425*
1,1,0.02850,0.01425,-0.01425*
%
%ADD24ROUNDEDRECTD24*%
%ADD25C,0.05700*%
%ADD26C,0.07500*%
%ADD27C,0.09000*%
G04:AMPARAMS|DCode=28|XSize=57mil|YSize=57mil|CornerRadius=14.25mil|HoleSize=0mil|Usage=FLASHONLY|Rotation=0.000|XOffset=0mil|YOffset=0mil|HoleType=Round|Shape=RoundedRectangle|*
%AMROUNDEDRECTD28*
21,1,0.05700,0.02850,0,0,0.0*
21,1,0.02850,0.05700,0,0,0.0*
1,1,0.02850,0.01425,-0.01425*
1,1,0.02850,-0.01425,-0.01425*
1,1,0.02850,-0.01425,0.01425*
1,1,0.02850,0.01425,0.01425*
%
%ADD28ROUNDEDRECTD28*%
%ADD29C,0.02500*%
%ADD30C,0.01969*%
G36*
X1303504Y889686D02*
X1346886Y846304D01*
Y736000D01*
X1099900Y736000D01*
X1099900Y762100D01*
X1084000Y778000D01*
X990300Y778000D01*
Y806000D01*
X946000D01*
Y871247D01*
X946452Y871461D01*
X946676Y871277D01*
X947866Y870641D01*
X949157Y870249D01*
X950500Y870117D01*
X951843Y870249D01*
X953134Y870641D01*
X954324Y871277D01*
X955367Y872133D01*
X956223Y873176D01*
X956859Y874366D01*
X957251Y875657D01*
X957383Y877000D01*
X957251Y878343D01*
X956859Y879634D01*
X956223Y880824D01*
X955367Y881867D01*
X954324Y882723D01*
X953134Y883359D01*
X951843Y883751D01*
X950500Y883883D01*
X949157Y883751D01*
X947866Y883359D01*
X946676Y882723D01*
X946452Y882539D01*
X946000Y882753D01*
Y889687D01*
X1303504Y889686D01*
D02*
G37*
G36*
X969184Y597584D02*
X972137D01*
Y595616D01*
X969184D01*
Y592663D01*
X967216D01*
Y595616D01*
X964263D01*
Y597584D01*
X967216D01*
Y600537D01*
X969184D01*
Y597584D01*
D02*
G37*
G36*
X1346886Y561414D02*
X1099300D01*
Y731100D01*
X1346886D01*
Y561414D01*
D02*
G37*
%LPC*%
G36*
X1294200Y889131D02*
X1255300D01*
X1254676Y889007D01*
X1254146Y888653D01*
X1247875Y882382D01*
X1247678Y882343D01*
X1247066Y881934D01*
X1246657Y881322D01*
X1246514Y880600D01*
X1246657Y879878D01*
X1247066Y879266D01*
X1247678Y878857D01*
X1248400Y878714D01*
X1249122Y878857D01*
X1249734Y879266D01*
X1250143Y879878D01*
X1250182Y880075D01*
X1255976Y885869D01*
X1293524D01*
X1296318Y883075D01*
X1296357Y882878D01*
X1296766Y882266D01*
X1297378Y881857D01*
X1298100Y881714D01*
X1298822Y881857D01*
X1299434Y882266D01*
X1299843Y882878D01*
X1299986Y883600D01*
X1299843Y884322D01*
X1299434Y884934D01*
X1298822Y885343D01*
X1298625Y885382D01*
X1295354Y888653D01*
X1294824Y889007D01*
X1294200Y889131D01*
D02*
G37*
G36*
X1028521Y881421D02*
X1018679D01*
Y871579D01*
X1028521D01*
Y881421D01*
D02*
G37*
G36*
X1294300Y875387D02*
X1293164Y875238D01*
X1292106Y874800D01*
X1291197Y874102D01*
X1290500Y873194D01*
X1290062Y872136D01*
X1289913Y871000D01*
X1290062Y869864D01*
X1290500Y868806D01*
X1291197Y867898D01*
X1292106Y867200D01*
X1293164Y866762D01*
X1294300Y866613D01*
X1295436Y866762D01*
X1296494Y867200D01*
X1297402Y867898D01*
X1298100Y868806D01*
X1298538Y869864D01*
X1298687Y871000D01*
X1298538Y872136D01*
X1298100Y873194D01*
X1297402Y874102D01*
X1296494Y874800D01*
X1295436Y875238D01*
X1294300Y875387D01*
D02*
G37*
G36*
X1284300D02*
X1283164Y875238D01*
X1282106Y874800D01*
X1281197Y874102D01*
X1280500Y873194D01*
X1280062Y872136D01*
X1279912Y871000D01*
X1280062Y869864D01*
X1280500Y868806D01*
X1281197Y867898D01*
X1282106Y867200D01*
X1283164Y866762D01*
X1284300Y866613D01*
X1285436Y866762D01*
X1286494Y867200D01*
X1287403Y867898D01*
X1288100Y868806D01*
X1288538Y869864D01*
X1288688Y871000D01*
X1288538Y872136D01*
X1288100Y873194D01*
X1287403Y874102D01*
X1286494Y874800D01*
X1285436Y875238D01*
X1284300Y875387D01*
D02*
G37*
G36*
X1241100Y879086D02*
X1240378Y878943D01*
X1239766Y878534D01*
X1239357Y877922D01*
X1239214Y877200D01*
X1239357Y876478D01*
X1239766Y875866D01*
X1240378Y875457D01*
X1241100Y875314D01*
X1241822Y875457D01*
X1242098Y875642D01*
X1242228Y875672D01*
X1242712Y876017D01*
X1242948Y876165D01*
X1243031Y876210D01*
X1243096Y876241D01*
X1243127Y876254D01*
X1243135Y876255D01*
X1243142Y876258D01*
X1243174Y876267D01*
X1243194Y876282D01*
X1257720D01*
X1259237Y874765D01*
X1259946Y870369D01*
X1260009Y870267D01*
X1260062Y869864D01*
X1260500Y868806D01*
X1261197Y867898D01*
X1262106Y867200D01*
X1263164Y866762D01*
X1264300Y866613D01*
X1265436Y866762D01*
X1266494Y867200D01*
X1267402Y867898D01*
X1268100Y868806D01*
X1268538Y869864D01*
X1268688Y871000D01*
X1268538Y872136D01*
X1268100Y873194D01*
X1267402Y874102D01*
X1266494Y874800D01*
X1265436Y875238D01*
X1265029Y875292D01*
X1264923Y875355D01*
X1261570Y875854D01*
X1260625Y876021D01*
X1260562Y876036D01*
X1258749Y877849D01*
X1258451Y878048D01*
X1258100Y878118D01*
X1243194D01*
X1243174Y878133D01*
X1243142Y878142D01*
X1243135Y878145D01*
X1243127Y878146D01*
X1243096Y878158D01*
X1243052Y878179D01*
X1242400Y878601D01*
X1242237Y878722D01*
X1242102Y878755D01*
X1241822Y878943D01*
X1241100Y879086D01*
D02*
G37*
G36*
X1254300Y875387D02*
X1253164Y875238D01*
X1252106Y874800D01*
X1251198Y874102D01*
X1250500Y873194D01*
X1250062Y872136D01*
X1249912Y871000D01*
X1250062Y869864D01*
X1250500Y868806D01*
X1251198Y867898D01*
X1252106Y867200D01*
X1253164Y866762D01*
X1254300Y866613D01*
X1255436Y866762D01*
X1256494Y867200D01*
X1257403Y867898D01*
X1258100Y868806D01*
X1258538Y869864D01*
X1258687Y871000D01*
X1258538Y872136D01*
X1258100Y873194D01*
X1257403Y874102D01*
X1256494Y874800D01*
X1255436Y875238D01*
X1254300Y875387D01*
D02*
G37*
G36*
X1244300D02*
X1243164Y875238D01*
X1242106Y874800D01*
X1241197Y874102D01*
X1240500Y873194D01*
X1240062Y872136D01*
X1239913Y871000D01*
X1240062Y869864D01*
X1240500Y868806D01*
X1241197Y867898D01*
X1242106Y867200D01*
X1243164Y866762D01*
X1244300Y866613D01*
X1245436Y866762D01*
X1246494Y867200D01*
X1247402Y867898D01*
X1248100Y868806D01*
X1248538Y869864D01*
X1248687Y871000D01*
X1248538Y872136D01*
X1248100Y873194D01*
X1247402Y874102D01*
X1246494Y874800D01*
X1245436Y875238D01*
X1244300Y875387D01*
D02*
G37*
G36*
X1274300D02*
X1273164Y875238D01*
X1272106Y874800D01*
X1271198Y874102D01*
X1270500Y873194D01*
X1270062Y872136D01*
X1270008Y871729D01*
X1269945Y871624D01*
X1269446Y868270D01*
X1269279Y867325D01*
X1269264Y867262D01*
X1267620Y865618D01*
X1234194D01*
X1234174Y865633D01*
X1234142Y865642D01*
X1234135Y865645D01*
X1234127Y865646D01*
X1234096Y865658D01*
X1234052Y865679D01*
X1233400Y866101D01*
X1233237Y866222D01*
X1233237Y866248D01*
X1233752Y866685D01*
X1234300Y866613D01*
X1235436Y866762D01*
X1236494Y867200D01*
X1237403Y867898D01*
X1238100Y868806D01*
X1238538Y869864D01*
X1238688Y871000D01*
X1238538Y872136D01*
X1238100Y873194D01*
X1237403Y874102D01*
X1236494Y874800D01*
X1235436Y875238D01*
X1234300Y875387D01*
X1233164Y875238D01*
X1232106Y874800D01*
X1231197Y874102D01*
X1230500Y873194D01*
X1230062Y872136D01*
X1229912Y871000D01*
X1230062Y869864D01*
X1230500Y868806D01*
X1231197Y867898D01*
X1232106Y867200D01*
X1232596Y866997D01*
X1232450Y866517D01*
X1232100Y866586D01*
X1231378Y866443D01*
X1230766Y866034D01*
X1230357Y865422D01*
X1230214Y864700D01*
X1230357Y863978D01*
X1230766Y863366D01*
X1230839Y863318D01*
X1230687Y862818D01*
X1213762D01*
X1213411Y862748D01*
X1213113Y862549D01*
X1209601Y859037D01*
X1209402Y858739D01*
X1209332Y858388D01*
Y855612D01*
X1209402Y855261D01*
X1209601Y854963D01*
X1210797Y853767D01*
X1210801Y853753D01*
X1210806Y853720D01*
X1210816Y852927D01*
X1210804Y852712D01*
X1210824Y852654D01*
X1210814Y852600D01*
X1210957Y851878D01*
X1211366Y851266D01*
X1211978Y850857D01*
X1212700Y850714D01*
X1213422Y850857D01*
X1214034Y851266D01*
X1214149Y851439D01*
X1214751D01*
X1214866Y851266D01*
X1215478Y850857D01*
X1216200Y850714D01*
X1216922Y850857D01*
X1217534Y851266D01*
X1217943Y851878D01*
X1218086Y852600D01*
X1217943Y853322D01*
X1217534Y853934D01*
X1216922Y854343D01*
X1216596Y854407D01*
X1216483Y854478D01*
X1215897Y854576D01*
X1215625Y854639D01*
X1215534Y854666D01*
X1215466Y854689D01*
X1215436Y854702D01*
X1215429Y854708D01*
X1215422Y854710D01*
X1215393Y854726D01*
X1215368Y854729D01*
X1214937Y855161D01*
X1214934Y855308D01*
X1215048Y855757D01*
X1215412Y856017D01*
X1215648Y856165D01*
X1215731Y856210D01*
X1215796Y856242D01*
X1215827Y856254D01*
X1215835Y856255D01*
X1215842Y856258D01*
X1215874Y856267D01*
X1215893Y856282D01*
X1218373D01*
X1219202Y856000D01*
X1226271Y848932D01*
X1226274Y848907D01*
X1226290Y848878D01*
X1226292Y848871D01*
X1226297Y848864D01*
X1226311Y848834D01*
X1226327Y848788D01*
X1226490Y848028D01*
X1226520Y847828D01*
X1226591Y847709D01*
X1226657Y847378D01*
X1227066Y846766D01*
X1227678Y846357D01*
X1228400Y846214D01*
X1229122Y846357D01*
X1229734Y846766D01*
X1230143Y847378D01*
X1230286Y848100D01*
X1230143Y848822D01*
X1229734Y849434D01*
X1229122Y849843D01*
X1228796Y849907D01*
X1228683Y849978D01*
X1228097Y850076D01*
X1227825Y850139D01*
X1227734Y850166D01*
X1227666Y850189D01*
X1227636Y850202D01*
X1227629Y850208D01*
X1227622Y850210D01*
X1227593Y850226D01*
X1227569Y850229D01*
X1220349Y857449D01*
X1220324Y857465D01*
X1220306Y857489D01*
X1220176Y857565D01*
X1220051Y857648D01*
X1220022Y857654D01*
X1219996Y857669D01*
X1218821Y858069D01*
X1218672Y858088D01*
X1218525Y858118D01*
X1215893D01*
X1215874Y858133D01*
X1215842Y858142D01*
X1215835Y858145D01*
X1215827Y858146D01*
X1215796Y858158D01*
X1215753Y858179D01*
X1215100Y858601D01*
X1214937Y858722D01*
X1214802Y858755D01*
X1214522Y858943D01*
X1214440Y858959D01*
X1214295Y859437D01*
X1214639Y859782D01*
X1247345D01*
X1247434Y859663D01*
X1247418Y859514D01*
X1247257Y859062D01*
X1247102Y858958D01*
X1246972Y858928D01*
X1246488Y858583D01*
X1246252Y858435D01*
X1246169Y858390D01*
X1246104Y858358D01*
X1246073Y858346D01*
X1246065Y858345D01*
X1246058Y858342D01*
X1246026Y858333D01*
X1246006Y858318D01*
X1243803D01*
X1243452Y858248D01*
X1243154Y858049D01*
X1230523Y845418D01*
X1195600D01*
X1195249Y845348D01*
X1194951Y845149D01*
X1192851Y843049D01*
X1192652Y842751D01*
X1192582Y842400D01*
Y836394D01*
X1192567Y836374D01*
X1192558Y836342D01*
X1192555Y836335D01*
X1192554Y836327D01*
X1192542Y836296D01*
X1192521Y836252D01*
X1192099Y835600D01*
X1191978Y835437D01*
X1191945Y835302D01*
X1191757Y835022D01*
X1191614Y834300D01*
X1191757Y833578D01*
X1192166Y832966D01*
X1192778Y832557D01*
X1193500Y832414D01*
X1194222Y832557D01*
X1194834Y832966D01*
X1195243Y833578D01*
X1195386Y834300D01*
X1195243Y835022D01*
X1195058Y835298D01*
X1195028Y835428D01*
X1194683Y835912D01*
X1194535Y836148D01*
X1194490Y836231D01*
X1194458Y836296D01*
X1194446Y836327D01*
X1194445Y836335D01*
X1194442Y836342D01*
X1194433Y836374D01*
X1194418Y836394D01*
Y839097D01*
X1194918Y839365D01*
X1195078Y839257D01*
X1195800Y839114D01*
X1196522Y839257D01*
X1197134Y839666D01*
X1197543Y840278D01*
X1197607Y840604D01*
X1197678Y840717D01*
X1197776Y841303D01*
X1197839Y841575D01*
X1197866Y841666D01*
X1197889Y841734D01*
X1197902Y841764D01*
X1197908Y841771D01*
X1197910Y841778D01*
X1197926Y841807D01*
X1197929Y841831D01*
X1198480Y842382D01*
X1231400D01*
X1231751Y842452D01*
X1232049Y842651D01*
X1242580Y853182D01*
X1246055D01*
X1246074Y853167D01*
X1246106Y853158D01*
X1246113Y853155D01*
X1246122Y853154D01*
X1246152Y853141D01*
X1246196Y853121D01*
X1246848Y852699D01*
X1247012Y852578D01*
X1247146Y852545D01*
X1247427Y852357D01*
X1248149Y852214D01*
X1248870Y852357D01*
X1249482Y852766D01*
X1249891Y853378D01*
X1249982Y853837D01*
X1250482Y853787D01*
Y852103D01*
X1250552Y851752D01*
X1250751Y851454D01*
X1254854Y847351D01*
X1255152Y847152D01*
X1255330Y847117D01*
X1255463Y847052D01*
X1255491Y847050D01*
X1255494Y847049D01*
X1255507Y847041D01*
X1255528Y847026D01*
X1255557Y847002D01*
X1255591Y846968D01*
X1255631Y846923D01*
X1255686Y846854D01*
X1255721Y846834D01*
X1255737Y846796D01*
X1255796Y846771D01*
X1255866Y846666D01*
X1256478Y846257D01*
X1257200Y846114D01*
X1257922Y846257D01*
X1258534Y846666D01*
X1258943Y847278D01*
X1259086Y848000D01*
X1258943Y848722D01*
X1258534Y849334D01*
X1257922Y849743D01*
X1257567Y849813D01*
X1257337Y850369D01*
X1257343Y850378D01*
X1257486Y851100D01*
X1257343Y851822D01*
X1256934Y852434D01*
X1256322Y852843D01*
X1255600Y852986D01*
X1254878Y852843D01*
X1254266Y852434D01*
X1254082Y852416D01*
X1253518Y852980D01*
Y858000D01*
X1253448Y858351D01*
X1253249Y858649D01*
X1249349Y862549D01*
X1249051Y862748D01*
X1248700Y862818D01*
X1233592D01*
X1233432Y863318D01*
X1233712Y863517D01*
X1233948Y863665D01*
X1234031Y863710D01*
X1234096Y863741D01*
X1234127Y863754D01*
X1234135Y863755D01*
X1234142Y863758D01*
X1234174Y863767D01*
X1234194Y863782D01*
X1268000D01*
X1268351Y863852D01*
X1268649Y864051D01*
X1270535Y865937D01*
X1274931Y866646D01*
X1275033Y866709D01*
X1275436Y866762D01*
X1276494Y867200D01*
X1277402Y867898D01*
X1278100Y868806D01*
X1278538Y869864D01*
X1278687Y871000D01*
X1278538Y872136D01*
X1278100Y873194D01*
X1277402Y874102D01*
X1276494Y874800D01*
X1275436Y875238D01*
X1274300Y875387D01*
D02*
G37*
G36*
X1224300D02*
X1223164Y875238D01*
X1222106Y874800D01*
X1221198Y874102D01*
X1220500Y873194D01*
X1220062Y872136D01*
X1219913Y871000D01*
X1220062Y869864D01*
X1220500Y868806D01*
X1221198Y867898D01*
X1222106Y867200D01*
X1223164Y866762D01*
X1224300Y866613D01*
X1225436Y866762D01*
X1226494Y867200D01*
X1227402Y867898D01*
X1228100Y868806D01*
X1228538Y869864D01*
X1228687Y871000D01*
X1228538Y872136D01*
X1228100Y873194D01*
X1227402Y874102D01*
X1226494Y874800D01*
X1225436Y875238D01*
X1224300Y875387D01*
D02*
G37*
G36*
X1214300D02*
X1213164Y875238D01*
X1212106Y874800D01*
X1211197Y874102D01*
X1210500Y873194D01*
X1210062Y872136D01*
X1209912Y871000D01*
X1210062Y869864D01*
X1210500Y868806D01*
X1211197Y867898D01*
X1212106Y867200D01*
X1213164Y866762D01*
X1214300Y866613D01*
X1215436Y866762D01*
X1216494Y867200D01*
X1217402Y867898D01*
X1218100Y868806D01*
X1218538Y869864D01*
X1218688Y871000D01*
X1218538Y872136D01*
X1218100Y873194D01*
X1217402Y874102D01*
X1216494Y874800D01*
X1215436Y875238D01*
X1214300Y875387D01*
D02*
G37*
G36*
X1204300D02*
X1203164Y875238D01*
X1202106Y874800D01*
X1201198Y874102D01*
X1200500Y873194D01*
X1200062Y872136D01*
X1199912Y871000D01*
X1200062Y869864D01*
X1200500Y868806D01*
X1201198Y867898D01*
X1202106Y867200D01*
X1203164Y866762D01*
X1204300Y866613D01*
X1205436Y866762D01*
X1206494Y867200D01*
X1207403Y867898D01*
X1208100Y868806D01*
X1208538Y869864D01*
X1208687Y871000D01*
X1208538Y872136D01*
X1208100Y873194D01*
X1207403Y874102D01*
X1206494Y874800D01*
X1205436Y875238D01*
X1204300Y875387D01*
D02*
G37*
G36*
X1194300D02*
X1193164Y875238D01*
X1192106Y874800D01*
X1191197Y874102D01*
X1190500Y873194D01*
X1190062Y872136D01*
X1189913Y871000D01*
X1190062Y869864D01*
X1190500Y868806D01*
X1191197Y867898D01*
X1192106Y867200D01*
X1193164Y866762D01*
X1194300Y866613D01*
X1195436Y866762D01*
X1196494Y867200D01*
X1197402Y867898D01*
X1198100Y868806D01*
X1198538Y869864D01*
X1198687Y871000D01*
X1198538Y872136D01*
X1198100Y873194D01*
X1197402Y874102D01*
X1196494Y874800D01*
X1195436Y875238D01*
X1194300Y875387D01*
D02*
G37*
G36*
X1184300D02*
X1183164Y875238D01*
X1182106Y874800D01*
X1181197Y874102D01*
X1180500Y873194D01*
X1180062Y872136D01*
X1179912Y871000D01*
X1180062Y869864D01*
X1180500Y868806D01*
X1181197Y867898D01*
X1182106Y867200D01*
X1183164Y866762D01*
X1184300Y866613D01*
X1185436Y866762D01*
X1186494Y867200D01*
X1187403Y867898D01*
X1188100Y868806D01*
X1188538Y869864D01*
X1188688Y871000D01*
X1188538Y872136D01*
X1188100Y873194D01*
X1187403Y874102D01*
X1186494Y874800D01*
X1185436Y875238D01*
X1184300Y875387D01*
D02*
G37*
G36*
X1174300D02*
X1173164Y875238D01*
X1172106Y874800D01*
X1171198Y874102D01*
X1170500Y873194D01*
X1170062Y872136D01*
X1169913Y871000D01*
X1170062Y869864D01*
X1170500Y868806D01*
X1170750Y868481D01*
X1170780Y868361D01*
X1172798Y865638D01*
X1173349Y864851D01*
X1173382Y864796D01*
Y859593D01*
X1173367Y859574D01*
X1173358Y859542D01*
X1173355Y859535D01*
X1173354Y859527D01*
X1173341Y859496D01*
X1173320Y859453D01*
X1172899Y858800D01*
X1172778Y858637D01*
X1172745Y858502D01*
X1172557Y858222D01*
X1172414Y857500D01*
X1172557Y856778D01*
X1172966Y856166D01*
X1173578Y855757D01*
X1174300Y855614D01*
X1175022Y855757D01*
X1175634Y856166D01*
X1176043Y856778D01*
X1176186Y857500D01*
X1176043Y858222D01*
X1175858Y858498D01*
X1175828Y858628D01*
X1175483Y859112D01*
X1175335Y859348D01*
X1175290Y859431D01*
X1175259Y859496D01*
X1175246Y859527D01*
X1175245Y859535D01*
X1175242Y859542D01*
X1175233Y859574D01*
X1175218Y859593D01*
Y864758D01*
X1177825Y868368D01*
X1177853Y868484D01*
X1178100Y868806D01*
X1178538Y869864D01*
X1178687Y871000D01*
X1178538Y872136D01*
X1178100Y873194D01*
X1177402Y874102D01*
X1176494Y874800D01*
X1175436Y875238D01*
X1174300Y875387D01*
D02*
G37*
G36*
X1164300D02*
X1163164Y875238D01*
X1162106Y874800D01*
X1161197Y874102D01*
X1160500Y873194D01*
X1160062Y872136D01*
X1159912Y871000D01*
X1160062Y869864D01*
X1160500Y868806D01*
X1160750Y868481D01*
X1160780Y868361D01*
X1162798Y865638D01*
X1163349Y864851D01*
X1163382Y864796D01*
Y859293D01*
X1163367Y859274D01*
X1163358Y859242D01*
X1163355Y859235D01*
X1163354Y859227D01*
X1163342Y859196D01*
X1163321Y859153D01*
X1162899Y858500D01*
X1162778Y858337D01*
X1162745Y858202D01*
X1162557Y857922D01*
X1162414Y857200D01*
X1162557Y856478D01*
X1162966Y855866D01*
X1163578Y855457D01*
X1164300Y855314D01*
X1165022Y855457D01*
X1165634Y855866D01*
X1166043Y856478D01*
X1166186Y857200D01*
X1166043Y857922D01*
X1165858Y858198D01*
X1165828Y858328D01*
X1165483Y858812D01*
X1165335Y859048D01*
X1165290Y859131D01*
X1165259Y859196D01*
X1165246Y859227D01*
X1165245Y859235D01*
X1165242Y859242D01*
X1165233Y859274D01*
X1165218Y859293D01*
Y864758D01*
X1167825Y868368D01*
X1167853Y868484D01*
X1168100Y868806D01*
X1168538Y869864D01*
X1168688Y871000D01*
X1168538Y872136D01*
X1168100Y873194D01*
X1167402Y874102D01*
X1166494Y874800D01*
X1165436Y875238D01*
X1164300Y875387D01*
D02*
G37*
G36*
X1154300D02*
X1153164Y875238D01*
X1152106Y874800D01*
X1151198Y874102D01*
X1150500Y873194D01*
X1150062Y872136D01*
X1149912Y871000D01*
X1150062Y869864D01*
X1150500Y868806D01*
X1150750Y868481D01*
X1150780Y868361D01*
X1152798Y865638D01*
X1153349Y864851D01*
X1153382Y864796D01*
Y859293D01*
X1153367Y859274D01*
X1153358Y859242D01*
X1153355Y859235D01*
X1153354Y859227D01*
X1153341Y859196D01*
X1153321Y859153D01*
X1152899Y858500D01*
X1152778Y858337D01*
X1152745Y858202D01*
X1152557Y857922D01*
X1152414Y857200D01*
X1152557Y856478D01*
X1152966Y855866D01*
X1153578Y855457D01*
X1154300Y855314D01*
X1155022Y855457D01*
X1155634Y855866D01*
X1156043Y856478D01*
X1156186Y857200D01*
X1156043Y857922D01*
X1155858Y858198D01*
X1155828Y858328D01*
X1155483Y858812D01*
X1155335Y859048D01*
X1155290Y859131D01*
X1155258Y859196D01*
X1155246Y859227D01*
X1155245Y859235D01*
X1155242Y859242D01*
X1155233Y859274D01*
X1155218Y859293D01*
Y864758D01*
X1157825Y868368D01*
X1157853Y868484D01*
X1158100Y868806D01*
X1158538Y869864D01*
X1158687Y871000D01*
X1158538Y872136D01*
X1158100Y873194D01*
X1157403Y874102D01*
X1156494Y874800D01*
X1155436Y875238D01*
X1154300Y875387D01*
D02*
G37*
G36*
X1144300D02*
X1143164Y875238D01*
X1142106Y874800D01*
X1141197Y874102D01*
X1140500Y873194D01*
X1140062Y872136D01*
X1139913Y871000D01*
X1140062Y869864D01*
X1140500Y868806D01*
X1140750Y868481D01*
X1140780Y868361D01*
X1142798Y865638D01*
X1143349Y864851D01*
X1143382Y864796D01*
Y859293D01*
X1143367Y859274D01*
X1143358Y859242D01*
X1143355Y859235D01*
X1143354Y859227D01*
X1143342Y859196D01*
X1143320Y859153D01*
X1142899Y858500D01*
X1142778Y858337D01*
X1142745Y858202D01*
X1142557Y857922D01*
X1142414Y857200D01*
X1142557Y856478D01*
X1142966Y855866D01*
X1143578Y855457D01*
X1144300Y855314D01*
X1145022Y855457D01*
X1145634Y855866D01*
X1146043Y856478D01*
X1146186Y857200D01*
X1146043Y857922D01*
X1145858Y858198D01*
X1145828Y858328D01*
X1145483Y858812D01*
X1145335Y859048D01*
X1145290Y859131D01*
X1145259Y859196D01*
X1145246Y859227D01*
X1145245Y859235D01*
X1145242Y859242D01*
X1145233Y859274D01*
X1145218Y859293D01*
Y864758D01*
X1147825Y868368D01*
X1147853Y868484D01*
X1148100Y868806D01*
X1148538Y869864D01*
X1148687Y871000D01*
X1148538Y872136D01*
X1148100Y873194D01*
X1147402Y874102D01*
X1146494Y874800D01*
X1145436Y875238D01*
X1144300Y875387D01*
D02*
G37*
G36*
X1134300D02*
X1133164Y875238D01*
X1132106Y874800D01*
X1131197Y874102D01*
X1130500Y873194D01*
X1130062Y872136D01*
X1129912Y871000D01*
X1130062Y869864D01*
X1130500Y868806D01*
X1130750Y868481D01*
X1130780Y868361D01*
X1132798Y865638D01*
X1133349Y864851D01*
X1133382Y864796D01*
Y859293D01*
X1133367Y859274D01*
X1133358Y859242D01*
X1133355Y859235D01*
X1133354Y859227D01*
X1133342Y859196D01*
X1133321Y859153D01*
X1132899Y858500D01*
X1132778Y858337D01*
X1132745Y858202D01*
X1132557Y857922D01*
X1132414Y857200D01*
X1132557Y856478D01*
X1132966Y855866D01*
X1133578Y855457D01*
X1134300Y855314D01*
X1135022Y855457D01*
X1135634Y855866D01*
X1136043Y856478D01*
X1136186Y857200D01*
X1136043Y857922D01*
X1135858Y858198D01*
X1135828Y858328D01*
X1135483Y858812D01*
X1135335Y859048D01*
X1135290Y859131D01*
X1135258Y859196D01*
X1135246Y859227D01*
X1135245Y859235D01*
X1135242Y859242D01*
X1135233Y859274D01*
X1135218Y859293D01*
Y864758D01*
X1137825Y868368D01*
X1137853Y868484D01*
X1138100Y868806D01*
X1138538Y869864D01*
X1138688Y871000D01*
X1138538Y872136D01*
X1138100Y873194D01*
X1137403Y874102D01*
X1136494Y874800D01*
X1135436Y875238D01*
X1134300Y875387D01*
D02*
G37*
G36*
X1124300D02*
X1123164Y875238D01*
X1122106Y874800D01*
X1121198Y874102D01*
X1120500Y873194D01*
X1120062Y872136D01*
X1119913Y871000D01*
X1120062Y869864D01*
X1120500Y868806D01*
X1120750Y868481D01*
X1120780Y868361D01*
X1122798Y865638D01*
X1123349Y864851D01*
X1123382Y864796D01*
Y859293D01*
X1123367Y859274D01*
X1123358Y859242D01*
X1123355Y859235D01*
X1123354Y859227D01*
X1123341Y859196D01*
X1123320Y859153D01*
X1122899Y858500D01*
X1122778Y858337D01*
X1122745Y858202D01*
X1122557Y857922D01*
X1122414Y857200D01*
X1122557Y856478D01*
X1122966Y855866D01*
X1123578Y855457D01*
X1124300Y855314D01*
X1125022Y855457D01*
X1125634Y855866D01*
X1126043Y856478D01*
X1126186Y857200D01*
X1126043Y857922D01*
X1125858Y858198D01*
X1125828Y858328D01*
X1125483Y858812D01*
X1125335Y859048D01*
X1125290Y859131D01*
X1125259Y859196D01*
X1125246Y859227D01*
X1125245Y859235D01*
X1125242Y859242D01*
X1125233Y859274D01*
X1125218Y859293D01*
Y864758D01*
X1127825Y868368D01*
X1127853Y868484D01*
X1128100Y868806D01*
X1128538Y869864D01*
X1128687Y871000D01*
X1128538Y872136D01*
X1128100Y873194D01*
X1127402Y874102D01*
X1126494Y874800D01*
X1125436Y875238D01*
X1124300Y875387D01*
D02*
G37*
G36*
X1318300Y846186D02*
X1317578Y846043D01*
X1316966Y845634D01*
X1316557Y845022D01*
X1316414Y844300D01*
X1316557Y843578D01*
X1316966Y842966D01*
X1317382Y842688D01*
Y842169D01*
X1316920Y841977D01*
X1315089Y843809D01*
X1315186Y844300D01*
X1315043Y845022D01*
X1314634Y845634D01*
X1314022Y846043D01*
X1313300Y846186D01*
X1312578Y846043D01*
X1311966Y845634D01*
X1311557Y845022D01*
X1311414Y844300D01*
X1311557Y843578D01*
X1311966Y842966D01*
X1312578Y842557D01*
X1313300Y842414D01*
X1313791Y842511D01*
X1316182Y840120D01*
Y801603D01*
X1316252Y801252D01*
X1316451Y800954D01*
X1322182Y795223D01*
Y783800D01*
X1322252Y783449D01*
X1322451Y783151D01*
X1327451Y778151D01*
X1327749Y777952D01*
X1328100Y777882D01*
X1332588D01*
X1332866Y777466D01*
X1333478Y777057D01*
X1334200Y776914D01*
X1334922Y777057D01*
X1335534Y777466D01*
X1335943Y778078D01*
X1336086Y778800D01*
X1335943Y779522D01*
X1335534Y780134D01*
X1334922Y780543D01*
X1334200Y780686D01*
X1333478Y780543D01*
X1332866Y780134D01*
X1332588Y779718D01*
X1328480D01*
X1324018Y784180D01*
Y795603D01*
X1323948Y795954D01*
X1323749Y796252D01*
X1322380Y797620D01*
X1322572Y798082D01*
X1326388D01*
X1326666Y797666D01*
X1327278Y797257D01*
X1328000Y797114D01*
X1328722Y797257D01*
X1329334Y797666D01*
X1329743Y798278D01*
X1329886Y799000D01*
X1329743Y799722D01*
X1329334Y800334D01*
X1328722Y800743D01*
X1328000Y800886D01*
X1327278Y800743D01*
X1326666Y800334D01*
X1326388Y799918D01*
X1321780D01*
X1319218Y802480D01*
Y842688D01*
X1319298Y842741D01*
X1319351Y842752D01*
X1319649Y842951D01*
X1319848Y843249D01*
X1319858Y843303D01*
X1320043Y843578D01*
X1320186Y844300D01*
X1320043Y845022D01*
X1319634Y845634D01*
X1319022Y846043D01*
X1318300Y846186D01*
D02*
G37*
G36*
X1221300Y840186D02*
X1220578Y840043D01*
X1219966Y839634D01*
X1219557Y839022D01*
X1219414Y838300D01*
X1219557Y837578D01*
X1219742Y837302D01*
X1219772Y837172D01*
X1220117Y836688D01*
X1220265Y836452D01*
X1220310Y836369D01*
X1220341Y836304D01*
X1220354Y836273D01*
X1220355Y836265D01*
X1220358Y836258D01*
X1220367Y836226D01*
X1220382Y836207D01*
Y824582D01*
X1219920Y824391D01*
X1219178Y825133D01*
X1218881Y825332D01*
X1218530Y825402D01*
X1203709D01*
X1203690Y825417D01*
X1203658Y825426D01*
X1203651Y825430D01*
X1203643Y825431D01*
X1203612Y825443D01*
X1203568Y825464D01*
X1202916Y825885D01*
X1202752Y826006D01*
X1202618Y826039D01*
X1202338Y826227D01*
X1201616Y826371D01*
X1200894Y826227D01*
X1200282Y825818D01*
X1199873Y825206D01*
X1199730Y824484D01*
X1199873Y823762D01*
X1200282Y823151D01*
X1200894Y822742D01*
X1201616Y822598D01*
X1202338Y822742D01*
X1202614Y822926D01*
X1202743Y822956D01*
X1203228Y823301D01*
X1203464Y823449D01*
X1203547Y823495D01*
X1203612Y823526D01*
X1203643Y823538D01*
X1203651Y823539D01*
X1203658Y823543D01*
X1203690Y823551D01*
X1203709Y823567D01*
X1218149D01*
X1226805Y814911D01*
X1226660Y814432D01*
X1226578Y814416D01*
X1226302Y814231D01*
X1226172Y814202D01*
X1225688Y813856D01*
X1225452Y813709D01*
X1225369Y813663D01*
X1225304Y813632D01*
X1225273Y813620D01*
X1225265Y813619D01*
X1225258Y813615D01*
X1225226Y813606D01*
X1225206Y813591D01*
X1145307D01*
X1141118Y817780D01*
Y830220D01*
X1141904Y831007D01*
X1151007D01*
X1151026Y830991D01*
X1151058Y830983D01*
X1151065Y830979D01*
X1151073Y830978D01*
X1151104Y830966D01*
X1151147Y830945D01*
X1151800Y830523D01*
X1151963Y830402D01*
X1152098Y830369D01*
X1152378Y830182D01*
X1153100Y830038D01*
X1153822Y830182D01*
X1154434Y830591D01*
X1154843Y831203D01*
X1154986Y831924D01*
X1154843Y832646D01*
X1154434Y833258D01*
X1153822Y833667D01*
X1153100Y833811D01*
X1152378Y833667D01*
X1152102Y833483D01*
X1151972Y833453D01*
X1151488Y833107D01*
X1151252Y832960D01*
X1151169Y832914D01*
X1151104Y832883D01*
X1151073Y832871D01*
X1151065Y832870D01*
X1151058Y832866D01*
X1151026Y832857D01*
X1151007Y832842D01*
X1141524D01*
X1141173Y832772D01*
X1140876Y832573D01*
X1139551Y831249D01*
X1139352Y830951D01*
X1139282Y830600D01*
Y818561D01*
X1138782Y818379D01*
X1138604Y818498D01*
X1138253Y818568D01*
X1133650D01*
X1133299Y818498D01*
X1133001Y818299D01*
X1129620Y814918D01*
X1121922D01*
X1121654Y815377D01*
X1121658Y815418D01*
X1122112Y815741D01*
X1122348Y815889D01*
X1122431Y815935D01*
X1122496Y815966D01*
X1122527Y815978D01*
X1122535Y815979D01*
X1122542Y815983D01*
X1122574Y815991D01*
X1122593Y816007D01*
X1123824D01*
X1124175Y816076D01*
X1124473Y816276D01*
X1126549Y818351D01*
X1126748Y818649D01*
X1126818Y819000D01*
Y832720D01*
X1129080Y834982D01*
X1156520D01*
X1159292Y832211D01*
X1159351Y831649D01*
X1155544Y827842D01*
X1155194D01*
X1155174Y827857D01*
X1155142Y827866D01*
X1155135Y827870D01*
X1155127Y827871D01*
X1155096Y827883D01*
X1155052Y827904D01*
X1154400Y828325D01*
X1154237Y828446D01*
X1154102Y828479D01*
X1153822Y828667D01*
X1153100Y828811D01*
X1152378Y828667D01*
X1151766Y828258D01*
X1151357Y827646D01*
X1151214Y826924D01*
X1151357Y826202D01*
X1151766Y825591D01*
X1152378Y825182D01*
X1153100Y825038D01*
X1153822Y825182D01*
X1154098Y825366D01*
X1154228Y825396D01*
X1154712Y825741D01*
X1154948Y825889D01*
X1155031Y825935D01*
X1155096Y825966D01*
X1155127Y825978D01*
X1155135Y825979D01*
X1155142Y825983D01*
X1155174Y825991D01*
X1155194Y826007D01*
X1155924D01*
X1156275Y826077D01*
X1156573Y826276D01*
X1160380Y830082D01*
X1177362D01*
X1178971Y828473D01*
X1178974Y828449D01*
X1178990Y828420D01*
X1178992Y828413D01*
X1178998Y828406D01*
X1179011Y828376D01*
X1179027Y828330D01*
X1179190Y827570D01*
X1179220Y827369D01*
X1179292Y827251D01*
X1179357Y826920D01*
X1179766Y826308D01*
X1180378Y825899D01*
X1181100Y825756D01*
X1181822Y825899D01*
X1182434Y826308D01*
X1182843Y826920D01*
X1182986Y827642D01*
X1182843Y828364D01*
X1182434Y828975D01*
X1181822Y829384D01*
X1181496Y829449D01*
X1181383Y829520D01*
X1180797Y829618D01*
X1180525Y829681D01*
X1180434Y829707D01*
X1180366Y829731D01*
X1180336Y829744D01*
X1180329Y829749D01*
X1180322Y829752D01*
X1180293Y829768D01*
X1180268Y829771D01*
X1179454Y830586D01*
X1179770Y830977D01*
X1179800Y830957D01*
X1179963Y830836D01*
X1180098Y830803D01*
X1180378Y830616D01*
X1181100Y830472D01*
X1181822Y830616D01*
X1182434Y831024D01*
X1182843Y831636D01*
X1182986Y832358D01*
X1182843Y833080D01*
X1182434Y833692D01*
X1181822Y834101D01*
X1181100Y834245D01*
X1180378Y834101D01*
X1180102Y833916D01*
X1179972Y833887D01*
X1179488Y833541D01*
X1179252Y833394D01*
X1179169Y833348D01*
X1179104Y833317D01*
X1179073Y833305D01*
X1179065Y833304D01*
X1179058Y833300D01*
X1179026Y833291D01*
X1179006Y833276D01*
X1160822D01*
X1157549Y836549D01*
X1157251Y836748D01*
X1156900Y836818D01*
X1128700D01*
X1128349Y836748D01*
X1128051Y836549D01*
X1125251Y833749D01*
X1125052Y833451D01*
X1124982Y833100D01*
Y819380D01*
X1123444Y817842D01*
X1122593D01*
X1122574Y817857D01*
X1122542Y817866D01*
X1122535Y817870D01*
X1122527Y817871D01*
X1122496Y817883D01*
X1122453Y817904D01*
X1121800Y818325D01*
X1121637Y818446D01*
X1121502Y818480D01*
X1121222Y818667D01*
X1120500Y818810D01*
X1119778Y818667D01*
X1119709Y818620D01*
X1119268Y818856D01*
Y819394D01*
X1119668Y819795D01*
X1119693Y819798D01*
X1119722Y819814D01*
X1119729Y819816D01*
X1119736Y819822D01*
X1119766Y819835D01*
X1119812Y819851D01*
X1120572Y820014D01*
X1120772Y820045D01*
X1120891Y820116D01*
X1121222Y820182D01*
X1121834Y820591D01*
X1122243Y821202D01*
X1122386Y821924D01*
X1122243Y822646D01*
X1121834Y823258D01*
X1121222Y823667D01*
X1120500Y823811D01*
X1119778Y823667D01*
X1119166Y823258D01*
X1118757Y822646D01*
X1118693Y822321D01*
X1118622Y822208D01*
X1118524Y821621D01*
X1118461Y821350D01*
X1118434Y821258D01*
X1118411Y821190D01*
X1118398Y821160D01*
X1118392Y821154D01*
X1118390Y821146D01*
X1118374Y821117D01*
X1118371Y821093D01*
X1117701Y820423D01*
X1117502Y820125D01*
X1117432Y819774D01*
Y815950D01*
X1117502Y815599D01*
X1117701Y815301D01*
X1119651Y813351D01*
X1119949Y813152D01*
X1120300Y813082D01*
X1130000D01*
X1130351Y813152D01*
X1130649Y813351D01*
X1132729Y815431D01*
X1133262Y815257D01*
X1133357Y814778D01*
X1133469Y814612D01*
Y811088D01*
X1133357Y810922D01*
X1133214Y810200D01*
X1133357Y809478D01*
X1133766Y808866D01*
X1134378Y808457D01*
X1135100Y808314D01*
X1135822Y808457D01*
X1136434Y808866D01*
X1136843Y809478D01*
X1136986Y810200D01*
X1136843Y810922D01*
X1136731Y811088D01*
Y814612D01*
X1136843Y814778D01*
X1136986Y815500D01*
X1136843Y816222D01*
X1136796Y816291D01*
X1137032Y816732D01*
X1137873D01*
X1143981Y810624D01*
X1144279Y810425D01*
X1144630Y810356D01*
X1211947D01*
X1213271Y809031D01*
X1213274Y809007D01*
X1213290Y808978D01*
X1213292Y808971D01*
X1213297Y808964D01*
X1213311Y808934D01*
X1213327Y808888D01*
X1213490Y808129D01*
X1213520Y807928D01*
X1213591Y807809D01*
X1213657Y807478D01*
X1214066Y806866D01*
X1214678Y806457D01*
X1215400Y806314D01*
X1216122Y806457D01*
X1216734Y806866D01*
X1217143Y807478D01*
X1217286Y808200D01*
X1217143Y808922D01*
X1216734Y809534D01*
X1216122Y809943D01*
X1215796Y810007D01*
X1215683Y810078D01*
X1215097Y810176D01*
X1214825Y810239D01*
X1214734Y810266D01*
X1214666Y810289D01*
X1214636Y810303D01*
X1214629Y810308D01*
X1214622Y810310D01*
X1214593Y810326D01*
X1214569Y810329D01*
X1213604Y811294D01*
X1213795Y811756D01*
X1225206D01*
X1225226Y811740D01*
X1225258Y811732D01*
X1225265Y811728D01*
X1225273Y811727D01*
X1225304Y811715D01*
X1225348Y811694D01*
X1226000Y811272D01*
X1226163Y811152D01*
X1226298Y811118D01*
X1226578Y810931D01*
X1227300Y810787D01*
X1228022Y810931D01*
X1228634Y811339D01*
X1228817Y811615D01*
X1229474Y811750D01*
X1229582Y811670D01*
Y799600D01*
X1229652Y799249D01*
X1229851Y798951D01*
X1233451Y795351D01*
X1233749Y795152D01*
X1234100Y795082D01*
X1243007D01*
X1243026Y795067D01*
X1243058Y795058D01*
X1243065Y795055D01*
X1243073Y795054D01*
X1243104Y795042D01*
X1243147Y795020D01*
X1243800Y794599D01*
X1243963Y794478D01*
X1244098Y794445D01*
X1244378Y794257D01*
X1245100Y794114D01*
X1245822Y794257D01*
X1246434Y794666D01*
X1246843Y795278D01*
X1246961Y795871D01*
X1247164Y796136D01*
X1247429Y796339D01*
X1248022Y796457D01*
X1248634Y796866D01*
X1249043Y797478D01*
X1249186Y798200D01*
X1249043Y798922D01*
X1248634Y799534D01*
X1248022Y799943D01*
X1247300Y800086D01*
X1246578Y799943D01*
X1245966Y799534D01*
X1245655Y799068D01*
X1234330D01*
X1232618Y800780D01*
Y813011D01*
X1232548Y813362D01*
X1232349Y813660D01*
X1222218Y823791D01*
Y836207D01*
X1222233Y836226D01*
X1222242Y836258D01*
X1222245Y836265D01*
X1222246Y836273D01*
X1222258Y836304D01*
X1222279Y836347D01*
X1222701Y837000D01*
X1222822Y837163D01*
X1222855Y837298D01*
X1223043Y837578D01*
X1223186Y838300D01*
X1223043Y839022D01*
X1222634Y839634D01*
X1222022Y840043D01*
X1221300Y840186D01*
D02*
G37*
G36*
X1244500Y842486D02*
X1243778Y842343D01*
X1243166Y841934D01*
X1242757Y841322D01*
X1242614Y840600D01*
X1242757Y839878D01*
X1242869Y839712D01*
Y826988D01*
X1242757Y826822D01*
X1242614Y826100D01*
X1242757Y825378D01*
X1243166Y824766D01*
X1243778Y824357D01*
X1244500Y824214D01*
X1245222Y824357D01*
X1245834Y824766D01*
X1246243Y825378D01*
X1246386Y826100D01*
X1246243Y826822D01*
X1246131Y826988D01*
Y839712D01*
X1246243Y839878D01*
X1246386Y840600D01*
X1246243Y841322D01*
X1245834Y841934D01*
X1245222Y842343D01*
X1244500Y842486D01*
D02*
G37*
G36*
X972058Y826616D02*
Y822500D01*
X976173D01*
X976080Y823212D01*
X975612Y824341D01*
X974868Y825311D01*
X973898Y826054D01*
X972769Y826522D01*
X972058Y826616D01*
D02*
G37*
G36*
X971058D02*
X970346Y826522D01*
X969217Y826054D01*
X968247Y825311D01*
X967503Y824341D01*
X967035Y823212D01*
X966942Y822500D01*
X971058D01*
Y826616D01*
D02*
G37*
G36*
X983024Y825892D02*
X979776D01*
X978908Y825719D01*
X978173Y825227D01*
X977681Y824492D01*
X977509Y823624D01*
Y820376D01*
X977681Y819508D01*
X978173Y818773D01*
X978908Y818281D01*
X979776Y818108D01*
X983024D01*
X983892Y818281D01*
X984628Y818773D01*
X985119Y819508D01*
X985292Y820376D01*
Y823624D01*
X985119Y824492D01*
X984628Y825227D01*
X983892Y825719D01*
X983024Y825892D01*
D02*
G37*
G36*
X976173Y821500D02*
X972058D01*
Y817384D01*
X972769Y817478D01*
X973898Y817945D01*
X974868Y818690D01*
X975612Y819659D01*
X976080Y820788D01*
X976173Y821500D01*
D02*
G37*
G36*
X971058D02*
X966942D01*
X967035Y820788D01*
X967503Y819659D01*
X968247Y818690D01*
X969217Y817945D01*
X970346Y817478D01*
X971058Y817384D01*
Y821500D01*
D02*
G37*
G36*
X1033700Y834186D02*
X1032978Y834043D01*
X1032366Y833634D01*
X1031957Y833022D01*
X1031814Y832300D01*
X1031957Y831578D01*
X1032069Y831412D01*
Y828588D01*
X1031957Y828422D01*
X1031814Y827700D01*
X1031957Y826978D01*
X1032069Y826812D01*
Y818888D01*
X1031957Y818722D01*
X1031814Y818000D01*
X1031957Y817278D01*
X1032366Y816666D01*
X1032978Y816257D01*
X1033700Y816114D01*
X1034422Y816257D01*
X1035034Y816666D01*
X1035443Y817278D01*
X1035586Y818000D01*
X1035443Y818722D01*
X1035331Y818888D01*
Y826812D01*
X1035443Y826978D01*
X1035586Y827700D01*
X1035443Y828422D01*
X1035331Y828588D01*
Y831412D01*
X1035443Y831578D01*
X1035586Y832300D01*
X1035443Y833022D01*
X1035034Y833634D01*
X1034422Y834043D01*
X1033700Y834186D01*
D02*
G37*
G36*
X1167100Y827186D02*
X1166378Y827043D01*
X1165766Y826634D01*
X1165357Y826022D01*
X1165318Y825825D01*
X1158099Y818607D01*
X1157778Y818543D01*
X1157166Y818134D01*
X1156757Y817522D01*
X1156614Y816800D01*
X1156757Y816078D01*
X1157166Y815466D01*
X1157778Y815057D01*
X1158500Y814914D01*
X1159222Y815057D01*
X1159834Y815466D01*
X1160243Y816078D01*
X1160257Y816150D01*
X1167625Y823518D01*
X1167822Y823557D01*
X1168434Y823966D01*
X1168843Y824578D01*
X1168986Y825300D01*
X1168843Y826022D01*
X1168434Y826634D01*
X1167822Y827043D01*
X1167100Y827186D01*
D02*
G37*
G36*
X1292800Y805986D02*
X1292078Y805843D01*
X1291912Y805731D01*
X1284588D01*
X1284422Y805843D01*
X1283700Y805986D01*
X1282978Y805843D01*
X1282366Y805434D01*
X1281957Y804822D01*
X1281814Y804100D01*
X1281957Y803378D01*
X1282366Y802766D01*
X1282978Y802357D01*
X1283700Y802214D01*
X1284422Y802357D01*
X1284588Y802469D01*
X1291912D01*
X1292078Y802357D01*
X1292800Y802214D01*
X1293522Y802357D01*
X1294134Y802766D01*
X1294543Y803378D01*
X1294686Y804100D01*
X1294543Y804822D01*
X1294134Y805434D01*
X1293522Y805843D01*
X1292800Y805986D01*
D02*
G37*
G36*
X1057500Y832386D02*
X1056778Y832243D01*
X1056166Y831834D01*
X1055757Y831222D01*
X1055614Y830500D01*
X1055757Y829778D01*
X1055942Y829502D01*
X1055972Y829372D01*
X1056317Y828888D01*
X1056465Y828652D01*
X1056510Y828569D01*
X1056542Y828504D01*
X1056554Y828473D01*
X1056555Y828465D01*
X1056558Y828458D01*
X1056567Y828426D01*
X1056582Y828407D01*
Y805894D01*
X1056567Y805874D01*
X1056558Y805842D01*
X1056555Y805836D01*
X1056554Y805827D01*
X1056542Y805796D01*
X1056520Y805752D01*
X1056099Y805100D01*
X1055978Y804937D01*
X1055945Y804802D01*
X1055757Y804522D01*
X1055614Y803800D01*
X1055757Y803078D01*
X1056166Y802466D01*
X1056778Y802057D01*
X1057500Y801914D01*
X1058222Y802057D01*
X1058834Y802466D01*
X1059243Y803078D01*
X1059386Y803800D01*
X1059243Y804522D01*
X1059058Y804798D01*
X1059028Y804928D01*
X1058683Y805412D01*
X1058535Y805648D01*
X1058490Y805731D01*
X1058459Y805796D01*
X1058446Y805827D01*
X1058445Y805836D01*
X1058442Y805842D01*
X1058433Y805874D01*
X1058418Y805894D01*
Y828407D01*
X1058433Y828426D01*
X1058442Y828458D01*
X1058445Y828465D01*
X1058446Y828473D01*
X1058459Y828504D01*
X1058479Y828547D01*
X1058901Y829200D01*
X1059022Y829363D01*
X1059055Y829498D01*
X1059243Y829778D01*
X1059386Y830500D01*
X1059243Y831222D01*
X1058834Y831834D01*
X1058222Y832243D01*
X1057500Y832386D01*
D02*
G37*
G36*
X1026828Y802331D02*
X1025889Y802207D01*
X1025013Y801845D01*
X1024261Y801268D01*
X1023684Y800515D01*
X1023321Y799640D01*
X1023197Y798700D01*
X1023321Y797760D01*
X1023684Y796884D01*
X1024261Y796132D01*
X1025013Y795555D01*
X1025889Y795193D01*
X1026828Y795069D01*
X1027768Y795193D01*
X1028644Y795555D01*
X1029396Y796132D01*
X1029973Y796884D01*
X1030336Y797760D01*
X1030459Y798700D01*
X1030336Y799640D01*
X1029973Y800515D01*
X1029396Y801268D01*
X1028644Y801845D01*
X1027768Y802207D01*
X1026828Y802331D01*
D02*
G37*
G36*
X1014100Y802331D02*
X1013160Y802207D01*
X1012284Y801845D01*
X1011532Y801268D01*
X1010955Y800515D01*
X1010593Y799640D01*
X1010469Y798700D01*
X1010593Y797760D01*
X1010955Y796884D01*
X1011532Y796132D01*
X1012284Y795555D01*
X1013160Y795193D01*
X1014100Y795069D01*
X1015040Y795193D01*
X1015915Y795555D01*
X1016667Y796132D01*
X1017245Y796884D01*
X1017607Y797760D01*
X1017731Y798700D01*
X1017607Y799640D01*
X1017245Y800515D01*
X1016667Y801268D01*
X1015915Y801845D01*
X1015040Y802207D01*
X1014100Y802331D01*
D02*
G37*
G36*
X1167700Y801086D02*
X1166978Y800943D01*
X1166366Y800534D01*
X1165957Y799922D01*
X1165814Y799200D01*
X1165957Y798478D01*
X1166069Y798312D01*
Y795900D01*
X1166193Y795276D01*
X1166547Y794746D01*
X1168347Y792946D01*
X1168876Y792593D01*
X1169500Y792469D01*
X1209824D01*
X1212018Y790275D01*
X1212057Y790078D01*
X1212466Y789466D01*
X1213078Y789057D01*
X1213800Y788914D01*
X1214522Y789057D01*
X1215134Y789466D01*
X1215543Y790078D01*
X1215686Y790800D01*
X1215543Y791522D01*
X1215134Y792134D01*
X1214522Y792543D01*
X1214325Y792582D01*
X1211654Y795254D01*
X1211124Y795607D01*
X1210500Y795731D01*
X1170176D01*
X1169331Y796576D01*
Y798312D01*
X1169443Y798478D01*
X1169586Y799200D01*
X1169443Y799922D01*
X1169034Y800534D01*
X1168422Y800943D01*
X1167700Y801086D01*
D02*
G37*
G36*
X1014100Y792331D02*
X1013160Y792207D01*
X1012284Y791845D01*
X1011532Y791268D01*
X1010955Y790516D01*
X1010593Y789640D01*
X1010469Y788700D01*
X1010593Y787760D01*
X1010955Y786884D01*
X1011532Y786132D01*
X1012284Y785555D01*
X1013160Y785193D01*
X1014100Y785069D01*
X1015040Y785193D01*
X1015915Y785555D01*
X1016667Y786132D01*
X1017245Y786884D01*
X1017607Y787760D01*
X1017731Y788700D01*
X1017607Y789640D01*
X1017245Y790516D01*
X1016667Y791268D01*
X1015915Y791845D01*
X1015040Y792207D01*
X1014100Y792331D01*
D02*
G37*
G36*
X1026828Y792331D02*
X1025889Y792207D01*
X1025013Y791845D01*
X1024261Y791268D01*
X1023684Y790516D01*
X1023321Y789640D01*
X1023197Y788700D01*
X1023321Y787760D01*
X1023684Y786884D01*
X1024261Y786132D01*
X1025013Y785555D01*
X1025889Y785193D01*
X1026828Y785069D01*
X1027768Y785193D01*
X1028644Y785555D01*
X1029396Y786132D01*
X1029973Y786884D01*
X1030336Y787760D01*
X1030459Y788700D01*
X1030336Y789640D01*
X1029973Y790516D01*
X1029396Y791268D01*
X1028644Y791845D01*
X1027768Y792207D01*
X1026828Y792331D01*
D02*
G37*
G36*
X1294300Y788387D02*
X1293164Y788238D01*
X1292106Y787800D01*
X1291197Y787103D01*
X1290500Y786194D01*
X1290062Y785136D01*
X1289913Y784000D01*
X1290062Y782864D01*
X1290500Y781806D01*
X1291197Y780898D01*
X1292106Y780200D01*
X1293164Y779762D01*
X1294300Y779612D01*
X1295436Y779762D01*
X1296494Y780200D01*
X1297402Y780898D01*
X1298100Y781806D01*
X1298538Y782864D01*
X1298687Y784000D01*
X1298538Y785136D01*
X1298100Y786194D01*
X1297402Y787103D01*
X1296494Y787800D01*
X1295436Y788238D01*
X1294300Y788387D01*
D02*
G37*
G36*
X1274300D02*
X1273164Y788238D01*
X1272106Y787800D01*
X1271198Y787103D01*
X1270500Y786194D01*
X1270062Y785136D01*
X1269913Y784000D01*
X1270062Y782864D01*
X1270500Y781806D01*
X1271198Y780898D01*
X1272106Y780200D01*
X1273164Y779762D01*
X1274300Y779612D01*
X1275436Y779762D01*
X1276494Y780200D01*
X1277402Y780898D01*
X1278100Y781806D01*
X1278538Y782864D01*
X1278687Y784000D01*
X1278538Y785136D01*
X1278100Y786194D01*
X1277402Y787103D01*
X1276494Y787800D01*
X1275436Y788238D01*
X1274300Y788387D01*
D02*
G37*
G36*
X1264300D02*
X1263164Y788238D01*
X1262106Y787800D01*
X1261197Y787103D01*
X1260500Y786194D01*
X1260062Y785136D01*
X1259912Y784000D01*
X1260062Y782864D01*
X1260500Y781806D01*
X1261197Y780898D01*
X1262106Y780200D01*
X1263164Y779762D01*
X1264300Y779612D01*
X1265436Y779762D01*
X1266494Y780200D01*
X1267402Y780898D01*
X1268100Y781806D01*
X1268538Y782864D01*
X1268688Y784000D01*
X1268538Y785136D01*
X1268100Y786194D01*
X1267402Y787103D01*
X1266494Y787800D01*
X1265436Y788238D01*
X1264300Y788387D01*
D02*
G37*
G36*
X1254300D02*
X1253164Y788238D01*
X1252106Y787800D01*
X1251198Y787103D01*
X1250500Y786194D01*
X1250062Y785136D01*
X1249912Y784000D01*
X1250062Y782864D01*
X1250500Y781806D01*
X1251198Y780898D01*
X1252106Y780200D01*
X1253164Y779762D01*
X1254300Y779612D01*
X1255436Y779762D01*
X1256494Y780200D01*
X1257403Y780898D01*
X1258100Y781806D01*
X1258538Y782864D01*
X1258687Y784000D01*
X1258538Y785136D01*
X1258100Y786194D01*
X1257403Y787103D01*
X1256494Y787800D01*
X1255436Y788238D01*
X1254300Y788387D01*
D02*
G37*
G36*
X1244300D02*
X1243164Y788238D01*
X1242106Y787800D01*
X1241197Y787103D01*
X1240500Y786194D01*
X1240062Y785136D01*
X1239913Y784000D01*
X1240062Y782864D01*
X1240500Y781806D01*
X1241197Y780898D01*
X1242106Y780200D01*
X1243164Y779762D01*
X1244300Y779612D01*
X1245436Y779762D01*
X1246494Y780200D01*
X1247402Y780898D01*
X1248100Y781806D01*
X1248538Y782864D01*
X1248687Y784000D01*
X1248538Y785136D01*
X1248100Y786194D01*
X1247402Y787103D01*
X1246494Y787800D01*
X1245436Y788238D01*
X1244300Y788387D01*
D02*
G37*
G36*
X1234300D02*
X1233164Y788238D01*
X1232106Y787800D01*
X1231197Y787103D01*
X1230500Y786194D01*
X1230062Y785136D01*
X1229912Y784000D01*
X1230062Y782864D01*
X1230500Y781806D01*
X1231197Y780898D01*
X1232106Y780200D01*
X1233164Y779762D01*
X1234300Y779612D01*
X1235436Y779762D01*
X1236494Y780200D01*
X1237403Y780898D01*
X1238100Y781806D01*
X1238538Y782864D01*
X1238688Y784000D01*
X1238538Y785136D01*
X1238100Y786194D01*
X1237403Y787103D01*
X1236494Y787800D01*
X1235436Y788238D01*
X1234300Y788387D01*
D02*
G37*
G36*
X1224300D02*
X1223164Y788238D01*
X1222106Y787800D01*
X1221198Y787103D01*
X1220500Y786194D01*
X1220062Y785136D01*
X1219913Y784000D01*
X1220062Y782864D01*
X1220500Y781806D01*
X1221198Y780898D01*
X1222106Y780200D01*
X1223164Y779762D01*
X1224300Y779612D01*
X1225436Y779762D01*
X1226494Y780200D01*
X1227402Y780898D01*
X1228100Y781806D01*
X1228538Y782864D01*
X1228687Y784000D01*
X1228538Y785136D01*
X1228100Y786194D01*
X1227402Y787103D01*
X1226494Y787800D01*
X1225436Y788238D01*
X1224300Y788387D01*
D02*
G37*
G36*
X1214300D02*
X1213164Y788238D01*
X1212106Y787800D01*
X1211197Y787103D01*
X1210500Y786194D01*
X1210062Y785136D01*
X1209912Y784000D01*
X1210062Y782864D01*
X1210500Y781806D01*
X1211197Y780898D01*
X1212106Y780200D01*
X1213164Y779762D01*
X1214300Y779612D01*
X1215436Y779762D01*
X1216494Y780200D01*
X1217402Y780898D01*
X1218100Y781806D01*
X1218538Y782864D01*
X1218688Y784000D01*
X1218538Y785136D01*
X1218100Y786194D01*
X1217402Y787103D01*
X1216494Y787800D01*
X1215436Y788238D01*
X1214300Y788387D01*
D02*
G37*
G36*
X1204300D02*
X1203164Y788238D01*
X1202106Y787800D01*
X1201198Y787103D01*
X1200500Y786194D01*
X1200062Y785136D01*
X1199912Y784000D01*
X1200062Y782864D01*
X1200500Y781806D01*
X1201198Y780898D01*
X1202106Y780200D01*
X1203164Y779762D01*
X1204300Y779612D01*
X1205436Y779762D01*
X1206494Y780200D01*
X1207403Y780898D01*
X1208100Y781806D01*
X1208538Y782864D01*
X1208687Y784000D01*
X1208538Y785136D01*
X1208100Y786194D01*
X1207403Y787103D01*
X1206494Y787800D01*
X1205436Y788238D01*
X1204300Y788387D01*
D02*
G37*
G36*
X1194300D02*
X1193164Y788238D01*
X1192106Y787800D01*
X1191197Y787103D01*
X1190500Y786194D01*
X1190062Y785136D01*
X1189913Y784000D01*
X1190062Y782864D01*
X1190500Y781806D01*
X1191197Y780898D01*
X1192106Y780200D01*
X1193164Y779762D01*
X1194300Y779612D01*
X1195436Y779762D01*
X1196494Y780200D01*
X1197402Y780898D01*
X1198100Y781806D01*
X1198538Y782864D01*
X1198687Y784000D01*
X1198538Y785136D01*
X1198100Y786194D01*
X1197402Y787103D01*
X1196494Y787800D01*
X1195436Y788238D01*
X1194300Y788387D01*
D02*
G37*
G36*
X1184300D02*
X1183164Y788238D01*
X1182106Y787800D01*
X1181197Y787103D01*
X1180500Y786194D01*
X1180062Y785136D01*
X1179912Y784000D01*
X1180062Y782864D01*
X1180500Y781806D01*
X1181197Y780898D01*
X1182106Y780200D01*
X1183164Y779762D01*
X1184300Y779612D01*
X1185436Y779762D01*
X1186494Y780200D01*
X1187403Y780898D01*
X1188100Y781806D01*
X1188538Y782864D01*
X1188688Y784000D01*
X1188538Y785136D01*
X1188100Y786194D01*
X1187403Y787103D01*
X1186494Y787800D01*
X1185436Y788238D01*
X1184300Y788387D01*
D02*
G37*
G36*
X1174300D02*
X1173164Y788238D01*
X1172106Y787800D01*
X1171198Y787103D01*
X1170500Y786194D01*
X1170062Y785136D01*
X1169913Y784000D01*
X1170062Y782864D01*
X1170500Y781806D01*
X1171198Y780898D01*
X1172106Y780200D01*
X1173164Y779762D01*
X1174300Y779612D01*
X1175436Y779762D01*
X1176494Y780200D01*
X1177402Y780898D01*
X1178100Y781806D01*
X1178538Y782864D01*
X1178687Y784000D01*
X1178538Y785136D01*
X1178100Y786194D01*
X1177402Y787103D01*
X1176494Y787800D01*
X1175436Y788238D01*
X1174300Y788387D01*
D02*
G37*
G36*
X1164300D02*
X1163164Y788238D01*
X1162106Y787800D01*
X1161197Y787103D01*
X1160500Y786194D01*
X1160062Y785136D01*
X1159912Y784000D01*
X1160062Y782864D01*
X1160500Y781806D01*
X1161197Y780898D01*
X1162106Y780200D01*
X1163164Y779762D01*
X1164300Y779612D01*
X1165436Y779762D01*
X1166494Y780200D01*
X1167402Y780898D01*
X1168100Y781806D01*
X1168538Y782864D01*
X1168688Y784000D01*
X1168538Y785136D01*
X1168100Y786194D01*
X1167402Y787103D01*
X1166494Y787800D01*
X1165436Y788238D01*
X1164300Y788387D01*
D02*
G37*
G36*
X1154300D02*
X1153164Y788238D01*
X1152106Y787800D01*
X1151198Y787103D01*
X1150500Y786194D01*
X1150062Y785136D01*
X1149912Y784000D01*
X1150062Y782864D01*
X1150500Y781806D01*
X1151198Y780898D01*
X1152106Y780200D01*
X1153164Y779762D01*
X1154300Y779612D01*
X1155436Y779762D01*
X1156494Y780200D01*
X1157403Y780898D01*
X1158100Y781806D01*
X1158538Y782864D01*
X1158687Y784000D01*
X1158538Y785136D01*
X1158100Y786194D01*
X1157403Y787103D01*
X1156494Y787800D01*
X1155436Y788238D01*
X1154300Y788387D01*
D02*
G37*
G36*
X1144300D02*
X1143164Y788238D01*
X1142106Y787800D01*
X1141197Y787103D01*
X1140500Y786194D01*
X1140062Y785136D01*
X1139913Y784000D01*
X1140062Y782864D01*
X1140500Y781806D01*
X1141197Y780898D01*
X1142106Y780200D01*
X1143164Y779762D01*
X1144300Y779612D01*
X1145436Y779762D01*
X1146494Y780200D01*
X1147402Y780898D01*
X1148100Y781806D01*
X1148538Y782864D01*
X1148687Y784000D01*
X1148538Y785136D01*
X1148100Y786194D01*
X1147402Y787103D01*
X1146494Y787800D01*
X1145436Y788238D01*
X1144300Y788387D01*
D02*
G37*
G36*
X1134300D02*
X1133164Y788238D01*
X1132106Y787800D01*
X1131197Y787103D01*
X1130500Y786194D01*
X1130062Y785136D01*
X1129912Y784000D01*
X1130062Y782864D01*
X1130500Y781806D01*
X1131197Y780898D01*
X1132106Y780200D01*
X1133164Y779762D01*
X1134300Y779612D01*
X1135436Y779762D01*
X1136494Y780200D01*
X1137403Y780898D01*
X1138100Y781806D01*
X1138538Y782864D01*
X1138688Y784000D01*
X1138538Y785136D01*
X1138100Y786194D01*
X1137403Y787103D01*
X1136494Y787800D01*
X1135436Y788238D01*
X1134300Y788387D01*
D02*
G37*
G36*
X1124300D02*
X1123164Y788238D01*
X1122106Y787800D01*
X1121198Y787103D01*
X1120500Y786194D01*
X1120062Y785136D01*
X1119913Y784000D01*
X1120062Y782864D01*
X1120500Y781806D01*
X1121198Y780898D01*
X1122106Y780200D01*
X1123164Y779762D01*
X1124300Y779612D01*
X1125436Y779762D01*
X1126494Y780200D01*
X1127402Y780898D01*
X1128100Y781806D01*
X1128538Y782864D01*
X1128687Y784000D01*
X1128538Y785136D01*
X1128100Y786194D01*
X1127402Y787103D01*
X1126494Y787800D01*
X1125436Y788238D01*
X1124300Y788387D01*
D02*
G37*
G36*
X1284300D02*
X1283164Y788238D01*
X1282106Y787800D01*
X1281197Y787103D01*
X1280500Y786194D01*
X1280062Y785136D01*
X1279912Y784000D01*
X1280062Y782864D01*
X1280500Y781806D01*
X1281197Y780898D01*
X1281875Y780378D01*
X1281884Y780352D01*
X1281947Y780322D01*
X1281968Y780307D01*
X1282010Y780244D01*
X1282506Y779918D01*
X1282686Y779779D01*
X1282780Y779178D01*
X1282120Y778518D01*
X1241794D01*
X1241774Y778533D01*
X1241742Y778542D01*
X1241735Y778545D01*
X1241727Y778546D01*
X1241696Y778558D01*
X1241652Y778580D01*
X1241000Y779001D01*
X1240837Y779122D01*
X1240702Y779155D01*
X1240422Y779343D01*
X1239700Y779486D01*
X1238978Y779343D01*
X1238366Y778934D01*
X1237957Y778322D01*
X1237814Y777600D01*
X1237957Y776878D01*
X1238366Y776266D01*
X1238978Y775857D01*
X1239700Y775714D01*
X1240422Y775857D01*
X1240698Y776042D01*
X1240828Y776072D01*
X1241312Y776417D01*
X1241548Y776565D01*
X1241631Y776610D01*
X1241696Y776642D01*
X1241727Y776654D01*
X1241735Y776655D01*
X1241742Y776658D01*
X1241774Y776667D01*
X1241794Y776682D01*
X1282500D01*
X1282851Y776752D01*
X1283149Y776951D01*
X1284749Y778551D01*
X1284948Y778849D01*
X1284980Y779011D01*
X1285046Y779133D01*
X1285054Y779210D01*
X1285061Y779234D01*
X1285085Y779279D01*
X1285136Y779348D01*
X1285218Y779434D01*
X1285335Y779535D01*
X1285480Y779640D01*
X1285906Y779889D01*
X1286165Y780016D01*
X1286227Y780085D01*
X1286314Y780116D01*
X1286320Y780128D01*
X1286494Y780200D01*
X1287403Y780898D01*
X1288100Y781806D01*
X1288538Y782864D01*
X1288688Y784000D01*
X1288538Y785136D01*
X1288100Y786194D01*
X1287403Y787103D01*
X1286494Y787800D01*
X1285436Y788238D01*
X1284300Y788387D01*
D02*
G37*
G36*
X1298300Y846186D02*
X1297578Y846043D01*
X1296966Y845634D01*
X1296557Y845022D01*
X1296414Y844300D01*
X1296557Y843578D01*
X1296966Y842966D01*
X1297382Y842688D01*
Y816000D01*
X1297452Y815649D01*
X1297651Y815351D01*
X1310482Y802520D01*
Y780412D01*
X1310066Y780134D01*
X1309657Y779522D01*
X1309514Y778800D01*
X1309657Y778078D01*
X1310066Y777466D01*
X1310678Y777057D01*
X1311400Y776914D01*
X1312122Y777057D01*
X1312734Y777466D01*
X1313143Y778078D01*
X1313286Y778800D01*
X1313143Y779522D01*
X1312734Y780134D01*
X1312318Y780412D01*
Y802900D01*
X1312248Y803251D01*
X1312049Y803549D01*
X1299218Y816380D01*
Y842688D01*
X1299634Y842966D01*
X1300043Y843578D01*
X1300186Y844300D01*
X1300043Y845022D01*
X1299634Y845634D01*
X1299022Y846043D01*
X1298300Y846186D01*
D02*
G37*
G36*
X1287800Y770983D02*
X1286457Y770851D01*
X1285166Y770459D01*
X1283976Y769823D01*
X1282933Y768967D01*
X1282077Y767924D01*
X1281441Y766734D01*
X1281049Y765443D01*
X1280917Y764100D01*
X1281049Y762757D01*
X1281441Y761466D01*
X1282077Y760276D01*
X1282933Y759233D01*
X1283976Y758377D01*
X1285166Y757741D01*
X1286457Y757349D01*
X1287800Y757217D01*
X1289143Y757349D01*
X1290434Y757741D01*
X1291624Y758377D01*
X1292667Y759233D01*
X1293523Y760276D01*
X1294159Y761466D01*
X1294551Y762757D01*
X1294683Y764100D01*
X1294551Y765443D01*
X1294159Y766734D01*
X1293523Y767924D01*
X1292667Y768967D01*
X1291624Y769823D01*
X1290434Y770459D01*
X1289143Y770851D01*
X1287800Y770983D01*
D02*
G37*
G36*
X1245900Y752886D02*
X1245178Y752743D01*
X1244902Y752558D01*
X1244772Y752528D01*
X1244288Y752183D01*
X1244052Y752035D01*
X1243969Y751990D01*
X1243904Y751959D01*
X1243873Y751946D01*
X1243865Y751945D01*
X1243858Y751942D01*
X1243826Y751933D01*
X1243806Y751918D01*
X1235600D01*
X1235249Y751848D01*
X1234951Y751649D01*
X1233951Y750649D01*
X1233752Y750351D01*
X1233714Y750157D01*
X1233698Y750122D01*
X1233266Y749834D01*
X1232857Y749222D01*
X1232714Y748500D01*
X1232857Y747778D01*
X1233266Y747166D01*
X1233878Y746757D01*
X1234600Y746614D01*
X1235322Y746757D01*
X1235934Y747166D01*
X1236272Y747673D01*
X1236458Y747713D01*
X1236642D01*
X1236828Y747673D01*
X1236942Y747502D01*
X1236972Y747372D01*
X1237317Y746888D01*
X1237465Y746652D01*
X1237510Y746569D01*
X1237541Y746504D01*
X1237554Y746473D01*
X1237555Y746464D01*
X1237558Y746458D01*
X1237567Y746426D01*
X1237582Y746407D01*
Y745900D01*
X1237652Y745549D01*
X1237851Y745251D01*
X1239051Y744051D01*
X1239349Y743852D01*
X1239700Y743782D01*
X1243806D01*
X1243826Y743767D01*
X1243858Y743758D01*
X1243865Y743755D01*
X1243873Y743754D01*
X1243904Y743742D01*
X1243948Y743720D01*
X1244600Y743299D01*
X1244763Y743178D01*
X1244898Y743145D01*
X1245178Y742957D01*
X1245900Y742814D01*
X1246622Y742957D01*
X1247234Y743366D01*
X1247643Y743978D01*
X1247786Y744700D01*
X1247643Y745422D01*
X1247234Y746034D01*
X1246622Y746443D01*
X1245900Y746586D01*
X1245178Y746443D01*
X1244902Y746258D01*
X1244772Y746228D01*
X1244288Y745883D01*
X1244052Y745735D01*
X1243969Y745690D01*
X1243904Y745658D01*
X1243873Y745646D01*
X1243865Y745645D01*
X1243858Y745642D01*
X1243826Y745633D01*
X1243806Y745618D01*
X1240080D01*
X1239418Y746280D01*
Y746407D01*
X1239433Y746426D01*
X1239442Y746458D01*
X1239445Y746464D01*
X1239446Y746473D01*
X1239458Y746504D01*
X1239480Y746548D01*
X1239901Y747200D01*
X1240022Y747363D01*
X1240055Y747498D01*
X1240243Y747778D01*
X1240245Y747790D01*
X1240755D01*
X1240757Y747778D01*
X1241166Y747166D01*
X1241778Y746757D01*
X1242500Y746614D01*
X1243222Y746757D01*
X1243834Y747166D01*
X1244243Y747778D01*
X1244386Y748500D01*
X1244243Y749222D01*
X1244228Y749244D01*
X1244586Y749608D01*
X1244600Y749599D01*
X1244763Y749478D01*
X1244898Y749445D01*
X1245178Y749257D01*
X1245900Y749114D01*
X1246622Y749257D01*
X1247234Y749666D01*
X1247643Y750278D01*
X1247786Y751000D01*
X1247643Y751722D01*
X1247234Y752334D01*
X1246622Y752743D01*
X1245900Y752886D01*
D02*
G37*
G36*
X1209500Y779886D02*
X1208778Y779743D01*
X1208166Y779334D01*
X1207757Y778722D01*
X1207614Y778000D01*
X1207757Y777278D01*
X1208166Y776666D01*
X1208778Y776257D01*
X1208975Y776218D01*
X1219569Y765624D01*
Y763388D01*
X1219457Y763222D01*
X1219314Y762500D01*
X1219457Y761778D01*
X1219569Y761612D01*
Y755388D01*
X1219457Y755222D01*
X1219314Y754500D01*
X1219457Y753778D01*
X1219569Y753612D01*
Y744988D01*
X1219457Y744822D01*
X1219314Y744100D01*
X1219457Y743378D01*
X1219866Y742766D01*
X1220478Y742357D01*
X1221200Y742214D01*
X1221922Y742357D01*
X1222534Y742766D01*
X1222943Y743378D01*
X1223086Y744100D01*
X1222943Y744822D01*
X1222831Y744988D01*
Y753612D01*
X1222943Y753778D01*
X1223086Y754500D01*
X1222943Y755222D01*
X1222831Y755388D01*
Y761612D01*
X1222943Y761778D01*
X1223086Y762500D01*
X1222943Y763222D01*
X1222831Y763388D01*
Y766300D01*
X1222707Y766924D01*
X1222353Y767453D01*
X1211282Y778525D01*
X1211243Y778722D01*
X1210834Y779334D01*
X1210222Y779743D01*
X1209500Y779886D01*
D02*
G37*
%LPD*%
G36*
X1024584Y877484D02*
X1027537D01*
Y875516D01*
X1024584D01*
Y872563D01*
X1022616D01*
Y875516D01*
X1019663D01*
Y877484D01*
X1022616D01*
Y880437D01*
X1024584D01*
Y877484D01*
D02*
G37*
G36*
X1242030Y878067D02*
X1242734Y877612D01*
X1242836Y877563D01*
X1242925Y877528D01*
X1243001Y877507D01*
X1243064Y877500D01*
Y876900D01*
X1243001Y876893D01*
X1242925Y876872D01*
X1242836Y876837D01*
X1242734Y876788D01*
X1242620Y876725D01*
X1242351Y876557D01*
X1241851Y876200D01*
Y878199D01*
X1242030Y878067D01*
D02*
G37*
G36*
X1260342Y875421D02*
X1260492Y875385D01*
X1261466Y875212D01*
X1264828Y874713D01*
X1260587Y870472D01*
X1259854Y875022D01*
X1260278Y875446D01*
X1260342Y875421D01*
D02*
G37*
G36*
X1274828Y867287D02*
X1270278Y866554D01*
X1269854Y866978D01*
X1269879Y867042D01*
X1269915Y867192D01*
X1270088Y868166D01*
X1270587Y871528D01*
X1274828Y867287D01*
D02*
G37*
G36*
X1233030Y865567D02*
X1233734Y865112D01*
X1233836Y865063D01*
X1233925Y865028D01*
X1234001Y865007D01*
X1234064Y865000D01*
Y864400D01*
X1234001Y864393D01*
X1233925Y864372D01*
X1233836Y864337D01*
X1233734Y864288D01*
X1233620Y864225D01*
X1233351Y864057D01*
X1232851Y863700D01*
Y865699D01*
X1233030Y865567D01*
D02*
G37*
G36*
X1247349Y856400D02*
X1247170Y856533D01*
X1246466Y856988D01*
X1246364Y857037D01*
X1246275Y857072D01*
X1246199Y857093D01*
X1246136Y857100D01*
Y857700D01*
X1246199Y857707D01*
X1246275Y857728D01*
X1246364Y857763D01*
X1246466Y857812D01*
X1246580Y857875D01*
X1246849Y858043D01*
X1247349Y858399D01*
Y856400D01*
D02*
G37*
G36*
X1214730Y858067D02*
X1215434Y857612D01*
X1215536Y857563D01*
X1215625Y857528D01*
X1215701Y857507D01*
X1215763Y857500D01*
Y856900D01*
X1215701Y856893D01*
X1215625Y856872D01*
X1215536Y856837D01*
X1215434Y856788D01*
X1215320Y856725D01*
X1215051Y856557D01*
X1214551Y856201D01*
Y858200D01*
X1214730Y858067D01*
D02*
G37*
G36*
X1247398Y853100D02*
X1247218Y853233D01*
X1246514Y853688D01*
X1246412Y853737D01*
X1246324Y853772D01*
X1246248Y853793D01*
X1246185Y853800D01*
Y854400D01*
X1246248Y854407D01*
X1246324Y854428D01*
X1246412Y854463D01*
X1246514Y854512D01*
X1246629Y854575D01*
X1246898Y854743D01*
X1247398Y855099D01*
Y853100D01*
D02*
G37*
G36*
X1211985Y854308D02*
X1212054Y854257D01*
X1212138Y854204D01*
X1212235Y854149D01*
X1212473Y854033D01*
X1212769Y853909D01*
X1213121Y853777D01*
X1211452Y852677D01*
X1211465Y852913D01*
X1211455Y853774D01*
X1211438Y853882D01*
X1211416Y853970D01*
X1211389Y854036D01*
X1211358Y854081D01*
X1211930Y854357D01*
X1211985Y854308D01*
D02*
G37*
G36*
X1215073Y854161D02*
X1215141Y854122D01*
X1215229Y854084D01*
X1215336Y854047D01*
X1215461Y854010D01*
X1215770Y853939D01*
X1216376Y853838D01*
X1214962Y852424D01*
X1214929Y852645D01*
X1214753Y853464D01*
X1214716Y853571D01*
X1214678Y853658D01*
X1214639Y853727D01*
X1214600Y853776D01*
X1215024Y854200D01*
X1215073Y854161D01*
D02*
G37*
G36*
X1254422Y850683D02*
X1254411Y850706D01*
X1254395Y850725D01*
X1254375Y850743D01*
X1254350Y850758D01*
X1254321Y850771D01*
X1254286Y850781D01*
X1254247Y850790D01*
X1254202Y850795D01*
X1254154Y850799D01*
X1254100Y850800D01*
Y851400D01*
X1254154Y851401D01*
X1254247Y851410D01*
X1254286Y851419D01*
X1254321Y851429D01*
X1254350Y851442D01*
X1254375Y851457D01*
X1254395Y851475D01*
X1254411Y851495D01*
X1254422Y851517D01*
Y850683D01*
D02*
G37*
G36*
X1227273Y849661D02*
X1227341Y849622D01*
X1227429Y849584D01*
X1227536Y849547D01*
X1227661Y849510D01*
X1227970Y849439D01*
X1228576Y849338D01*
X1227162Y847924D01*
X1227129Y848145D01*
X1226953Y848964D01*
X1226916Y849071D01*
X1226878Y849158D01*
X1226839Y849227D01*
X1226799Y849276D01*
X1227224Y849701D01*
X1227273Y849661D01*
D02*
G37*
G36*
X1256196Y847255D02*
X1256130Y847340D01*
X1256063Y847415D01*
X1255995Y847482D01*
X1255927Y847540D01*
X1255858Y847589D01*
X1255788Y847629D01*
X1255718Y847660D01*
X1255647Y847682D01*
X1255575Y847696D01*
X1255503Y847700D01*
Y848300D01*
X1255575Y848304D01*
X1255647Y848318D01*
X1255718Y848340D01*
X1255788Y848371D01*
X1255858Y848411D01*
X1255927Y848460D01*
X1255995Y848518D01*
X1256063Y848585D01*
X1256130Y848660D01*
X1256196Y848745D01*
Y847255D01*
D02*
G37*
G36*
X1197400Y842176D02*
X1197361Y842127D01*
X1197322Y842058D01*
X1197284Y841971D01*
X1197247Y841864D01*
X1197210Y841739D01*
X1197139Y841430D01*
X1197038Y840824D01*
X1195624Y842238D01*
X1195845Y842271D01*
X1196664Y842447D01*
X1196771Y842484D01*
X1196859Y842522D01*
X1196927Y842561D01*
X1196976Y842601D01*
X1197400Y842176D01*
D02*
G37*
G36*
X1193807Y836201D02*
X1193828Y836125D01*
X1193863Y836036D01*
X1193912Y835934D01*
X1193975Y835820D01*
X1194143Y835551D01*
X1194499Y835051D01*
X1192500D01*
X1192633Y835230D01*
X1193088Y835934D01*
X1193137Y836036D01*
X1193172Y836125D01*
X1193193Y836201D01*
X1193200Y836263D01*
X1193800D01*
X1193807Y836201D01*
D02*
G37*
G36*
X1174600Y865012D02*
X1174000D01*
X1173973Y865075D01*
X1173892Y865207D01*
X1173325Y866017D01*
X1171301Y868748D01*
X1177299D01*
X1174600Y865012D01*
D02*
G37*
G36*
X1174607Y859401D02*
X1174628Y859325D01*
X1174663Y859236D01*
X1174712Y859134D01*
X1174775Y859020D01*
X1174943Y858751D01*
X1175299Y858251D01*
X1173300D01*
X1173433Y858430D01*
X1173888Y859134D01*
X1173937Y859236D01*
X1173972Y859325D01*
X1173993Y859401D01*
X1174000Y859464D01*
X1174600D01*
X1174607Y859401D01*
D02*
G37*
G36*
X1164600Y865012D02*
X1164000D01*
X1163973Y865075D01*
X1163892Y865207D01*
X1163325Y866017D01*
X1161301Y868748D01*
X1167299D01*
X1164600Y865012D01*
D02*
G37*
G36*
X1164607Y859101D02*
X1164628Y859025D01*
X1164663Y858936D01*
X1164712Y858834D01*
X1164775Y858720D01*
X1164943Y858451D01*
X1165300Y857951D01*
X1163301D01*
X1163433Y858130D01*
X1163888Y858834D01*
X1163937Y858936D01*
X1163972Y859025D01*
X1163993Y859101D01*
X1164000Y859163D01*
X1164600D01*
X1164607Y859101D01*
D02*
G37*
G36*
X1154600Y865012D02*
X1154000D01*
X1153973Y865075D01*
X1153892Y865207D01*
X1153325Y866017D01*
X1151301Y868748D01*
X1157299D01*
X1154600Y865012D01*
D02*
G37*
G36*
X1154607Y859101D02*
X1154628Y859025D01*
X1154663Y858936D01*
X1154712Y858834D01*
X1154775Y858720D01*
X1154943Y858451D01*
X1155299Y857951D01*
X1153300D01*
X1153433Y858130D01*
X1153888Y858834D01*
X1153937Y858936D01*
X1153972Y859025D01*
X1153993Y859101D01*
X1154000Y859163D01*
X1154600D01*
X1154607Y859101D01*
D02*
G37*
G36*
X1144600Y865012D02*
X1144000D01*
X1143973Y865075D01*
X1143892Y865207D01*
X1143325Y866017D01*
X1141301Y868748D01*
X1147299D01*
X1144600Y865012D01*
D02*
G37*
G36*
X1144607Y859101D02*
X1144628Y859025D01*
X1144663Y858936D01*
X1144712Y858834D01*
X1144775Y858720D01*
X1144943Y858451D01*
X1145300Y857951D01*
X1143301D01*
X1143433Y858130D01*
X1143888Y858834D01*
X1143937Y858936D01*
X1143972Y859025D01*
X1143993Y859101D01*
X1144000Y859163D01*
X1144600D01*
X1144607Y859101D01*
D02*
G37*
G36*
X1134600Y865012D02*
X1134000D01*
X1133973Y865075D01*
X1133892Y865207D01*
X1133325Y866017D01*
X1131301Y868748D01*
X1137299D01*
X1134600Y865012D01*
D02*
G37*
G36*
X1134607Y859101D02*
X1134628Y859025D01*
X1134663Y858936D01*
X1134712Y858834D01*
X1134775Y858720D01*
X1134943Y858451D01*
X1135299Y857951D01*
X1133300D01*
X1133433Y858130D01*
X1133888Y858834D01*
X1133937Y858936D01*
X1133972Y859025D01*
X1133993Y859101D01*
X1134000Y859163D01*
X1134600D01*
X1134607Y859101D01*
D02*
G37*
G36*
X1124600Y865012D02*
X1124000D01*
X1123973Y865075D01*
X1123892Y865207D01*
X1123325Y866017D01*
X1121301Y868748D01*
X1127299D01*
X1124600Y865012D01*
D02*
G37*
G36*
X1124607Y859101D02*
X1124628Y859025D01*
X1124663Y858936D01*
X1124712Y858834D01*
X1124775Y858720D01*
X1124943Y858451D01*
X1125299Y857951D01*
X1123300D01*
X1123433Y858130D01*
X1123888Y858834D01*
X1123937Y858936D01*
X1123972Y859025D01*
X1123993Y859101D01*
X1124000Y859163D01*
X1124600D01*
X1124607Y859101D01*
D02*
G37*
G36*
X1222167Y837370D02*
X1221712Y836666D01*
X1221663Y836564D01*
X1221628Y836475D01*
X1221607Y836399D01*
X1221600Y836337D01*
X1221000D01*
X1220993Y836399D01*
X1220972Y836475D01*
X1220937Y836564D01*
X1220888Y836666D01*
X1220825Y836780D01*
X1220657Y837049D01*
X1220300Y837549D01*
X1222299D01*
X1222167Y837370D01*
D02*
G37*
G36*
X1180349Y831359D02*
X1180170Y831492D01*
X1179466Y831946D01*
X1179364Y831995D01*
X1179275Y832030D01*
X1179199Y832051D01*
X1179136Y832058D01*
Y832658D01*
X1179199Y832665D01*
X1179275Y832686D01*
X1179364Y832721D01*
X1179466Y832770D01*
X1179580Y832833D01*
X1179849Y833001D01*
X1180349Y833358D01*
Y831359D01*
D02*
G37*
G36*
X1152349Y830925D02*
X1152170Y831058D01*
X1151466Y831512D01*
X1151364Y831561D01*
X1151275Y831596D01*
X1151199Y831617D01*
X1151136Y831624D01*
Y832224D01*
X1151199Y832231D01*
X1151275Y832252D01*
X1151364Y832287D01*
X1151466Y832336D01*
X1151580Y832399D01*
X1151849Y832567D01*
X1152349Y832924D01*
Y830925D01*
D02*
G37*
G36*
X1179973Y829203D02*
X1180042Y829164D01*
X1180129Y829126D01*
X1180236Y829089D01*
X1180361Y829052D01*
X1180670Y828981D01*
X1181276Y828879D01*
X1179862Y827466D01*
X1179829Y827687D01*
X1179653Y828506D01*
X1179616Y828613D01*
X1179578Y828700D01*
X1179539Y828769D01*
X1179500Y828818D01*
X1179924Y829242D01*
X1179973Y829203D01*
D02*
G37*
G36*
X1154030Y827791D02*
X1154734Y827336D01*
X1154836Y827287D01*
X1154925Y827252D01*
X1155001Y827231D01*
X1155064Y827224D01*
Y826624D01*
X1155001Y826617D01*
X1154925Y826596D01*
X1154836Y826561D01*
X1154734Y826512D01*
X1154620Y826449D01*
X1154351Y826282D01*
X1153851Y825925D01*
Y827924D01*
X1154030Y827791D01*
D02*
G37*
G36*
X1202546Y825351D02*
X1203250Y824896D01*
X1203352Y824847D01*
X1203441Y824812D01*
X1203516Y824791D01*
X1203579Y824784D01*
Y824184D01*
X1203516Y824177D01*
X1203441Y824156D01*
X1203352Y824121D01*
X1203250Y824072D01*
X1203135Y824009D01*
X1202867Y823841D01*
X1202366Y823485D01*
Y825484D01*
X1202546Y825351D01*
D02*
G37*
G36*
X1120676Y820687D02*
X1120455Y820654D01*
X1119636Y820477D01*
X1119529Y820440D01*
X1119442Y820402D01*
X1119373Y820363D01*
X1119324Y820324D01*
X1118900Y820748D01*
X1118939Y820797D01*
X1118978Y820866D01*
X1119016Y820953D01*
X1119053Y821060D01*
X1119090Y821186D01*
X1119161Y821494D01*
X1119262Y822100D01*
X1120676Y820687D01*
D02*
G37*
G36*
X1121430Y817791D02*
X1122134Y817336D01*
X1122236Y817287D01*
X1122325Y817252D01*
X1122401Y817231D01*
X1122464Y817224D01*
Y816624D01*
X1122401Y816617D01*
X1122325Y816596D01*
X1122236Y816561D01*
X1122134Y816512D01*
X1122020Y816449D01*
X1121751Y816282D01*
X1121251Y815925D01*
Y817924D01*
X1121430Y817791D01*
D02*
G37*
G36*
X1226549Y811674D02*
X1226370Y811807D01*
X1225666Y812261D01*
X1225564Y812310D01*
X1225475Y812345D01*
X1225399Y812366D01*
X1225336Y812373D01*
Y812973D01*
X1225399Y812980D01*
X1225475Y813001D01*
X1225564Y813036D01*
X1225666Y813085D01*
X1225780Y813148D01*
X1226049Y813316D01*
X1226549Y813673D01*
Y811674D01*
D02*
G37*
G36*
X1214273Y809761D02*
X1214342Y809722D01*
X1214429Y809684D01*
X1214536Y809647D01*
X1214661Y809610D01*
X1214970Y809539D01*
X1215576Y809438D01*
X1214162Y808024D01*
X1214129Y808245D01*
X1213953Y809064D01*
X1213916Y809171D01*
X1213878Y809258D01*
X1213839Y809327D01*
X1213799Y809376D01*
X1214224Y809801D01*
X1214273Y809761D01*
D02*
G37*
G36*
X1244349Y795001D02*
X1244170Y795133D01*
X1243466Y795588D01*
X1243364Y795637D01*
X1243275Y795672D01*
X1243199Y795693D01*
X1243137Y795700D01*
Y796300D01*
X1243199Y796307D01*
X1243275Y796328D01*
X1243364Y796363D01*
X1243466Y796412D01*
X1243580Y796475D01*
X1243849Y796643D01*
X1244349Y797000D01*
Y795001D01*
D02*
G37*
G36*
X1058367Y829570D02*
X1057912Y828866D01*
X1057863Y828764D01*
X1057828Y828675D01*
X1057807Y828599D01*
X1057800Y828537D01*
X1057200D01*
X1057193Y828599D01*
X1057172Y828675D01*
X1057137Y828764D01*
X1057088Y828866D01*
X1057025Y828980D01*
X1056857Y829249D01*
X1056501Y829749D01*
X1058500D01*
X1058367Y829570D01*
D02*
G37*
G36*
X1057807Y805701D02*
X1057828Y805625D01*
X1057863Y805536D01*
X1057912Y805434D01*
X1057975Y805320D01*
X1058143Y805051D01*
X1058500Y804551D01*
X1056501D01*
X1056633Y804730D01*
X1057088Y805434D01*
X1057137Y805536D01*
X1057172Y805625D01*
X1057193Y805701D01*
X1057200Y805764D01*
X1057800D01*
X1057807Y805701D01*
D02*
G37*
G36*
X1285880Y780599D02*
X1285599Y780461D01*
X1285125Y780184D01*
X1284933Y780045D01*
X1284770Y779906D01*
X1284637Y779765D01*
X1284533Y779625D01*
X1284459Y779484D01*
X1284415Y779342D01*
X1284400Y779200D01*
X1283800D01*
X1283786Y779346D01*
X1283743Y779495D01*
X1283671Y779647D01*
X1283571Y779802D01*
X1283442Y779959D01*
X1283284Y780119D01*
X1283098Y780282D01*
X1282883Y780447D01*
X1282367Y780787D01*
X1285880Y780599D01*
D02*
G37*
G36*
X1240630Y778467D02*
X1241334Y778012D01*
X1241436Y777963D01*
X1241525Y777928D01*
X1241601Y777907D01*
X1241663Y777900D01*
Y777300D01*
X1241601Y777293D01*
X1241525Y777272D01*
X1241436Y777237D01*
X1241334Y777188D01*
X1241220Y777125D01*
X1240951Y776957D01*
X1240451Y776601D01*
Y778600D01*
X1240630Y778467D01*
D02*
G37*
G36*
X1245149Y750000D02*
X1244970Y750133D01*
X1244266Y750588D01*
X1244164Y750637D01*
X1244075Y750672D01*
X1243999Y750693D01*
X1243937Y750700D01*
Y751300D01*
X1243999Y751307D01*
X1244075Y751328D01*
X1244164Y751363D01*
X1244266Y751412D01*
X1244380Y751475D01*
X1244649Y751643D01*
X1245149Y752000D01*
Y750000D01*
D02*
G37*
G36*
X1234901Y749946D02*
X1234910Y749853D01*
X1234919Y749814D01*
X1234929Y749780D01*
X1234942Y749750D01*
X1234957Y749725D01*
X1234975Y749705D01*
X1234995Y749689D01*
X1235017Y749679D01*
X1234183D01*
X1234206Y749689D01*
X1234225Y749705D01*
X1234243Y749725D01*
X1234258Y749750D01*
X1234271Y749780D01*
X1234281Y749814D01*
X1234289Y749853D01*
X1234295Y749897D01*
X1234299Y749946D01*
X1234300Y750000D01*
X1234900D01*
X1234901Y749946D01*
D02*
G37*
G36*
X1239367Y747570D02*
X1238912Y746866D01*
X1238863Y746764D01*
X1238828Y746675D01*
X1238807Y746599D01*
X1238800Y746536D01*
X1238200D01*
X1238193Y746599D01*
X1238172Y746675D01*
X1238137Y746764D01*
X1238088Y746866D01*
X1238025Y746980D01*
X1237857Y747249D01*
X1237500Y747749D01*
X1239499D01*
X1239367Y747570D01*
D02*
G37*
G36*
X1245149Y743701D02*
X1244970Y743833D01*
X1244266Y744288D01*
X1244164Y744337D01*
X1244075Y744372D01*
X1243999Y744393D01*
X1243937Y744400D01*
Y745000D01*
X1243999Y745007D01*
X1244075Y745028D01*
X1244164Y745063D01*
X1244266Y745112D01*
X1244380Y745175D01*
X1244649Y745343D01*
X1245149Y745700D01*
Y743701D01*
D02*
G37*
%LPC*%
G36*
X1306200Y709686D02*
X1305478Y709543D01*
X1305312Y709431D01*
X1302688D01*
X1302522Y709543D01*
X1301800Y709686D01*
X1301078Y709543D01*
X1300466Y709134D01*
X1300057Y708522D01*
X1299914Y707800D01*
X1300057Y707078D01*
X1300466Y706466D01*
X1301078Y706057D01*
X1301800Y705914D01*
X1302522Y706057D01*
X1302688Y706169D01*
X1305312D01*
X1305478Y706057D01*
X1306200Y705914D01*
X1306922Y706057D01*
X1307534Y706466D01*
X1307943Y707078D01*
X1308086Y707800D01*
X1307943Y708522D01*
X1307534Y709134D01*
X1306922Y709543D01*
X1306200Y709686D01*
D02*
G37*
G36*
X1242600Y709586D02*
X1241878Y709443D01*
X1241712Y709331D01*
X1236539D01*
X1236522Y709343D01*
X1235800Y709486D01*
X1235078Y709343D01*
X1234466Y708934D01*
X1234057Y708322D01*
X1233914Y707600D01*
X1234057Y706878D01*
X1234466Y706266D01*
X1235078Y705857D01*
X1235800Y705714D01*
X1236522Y705857D01*
X1236838Y706069D01*
X1241712D01*
X1241878Y705957D01*
X1242600Y705814D01*
X1243322Y705957D01*
X1243934Y706366D01*
X1244343Y706978D01*
X1244486Y707700D01*
X1244343Y708422D01*
X1243934Y709034D01*
X1243322Y709443D01*
X1242600Y709586D01*
D02*
G37*
G36*
X1242300Y689086D02*
X1241578Y688943D01*
X1240966Y688534D01*
X1240557Y687922D01*
X1240493Y687596D01*
X1240422Y687483D01*
X1240324Y686897D01*
X1240261Y686625D01*
X1240234Y686534D01*
X1240211Y686466D01*
X1240197Y686436D01*
X1240192Y686429D01*
X1240190Y686422D01*
X1240174Y686393D01*
X1240171Y686369D01*
X1237851Y684049D01*
X1237652Y683751D01*
X1237582Y683400D01*
Y664494D01*
X1237567Y664474D01*
X1237558Y664442D01*
X1237555Y664435D01*
X1237554Y664427D01*
X1237541Y664396D01*
X1237521Y664353D01*
X1237099Y663700D01*
X1236978Y663537D01*
X1236945Y663402D01*
X1236757Y663122D01*
X1236614Y662400D01*
X1236757Y661678D01*
X1237166Y661066D01*
X1237778Y660657D01*
X1238500Y660514D01*
X1239222Y660657D01*
X1239834Y661066D01*
X1240243Y661678D01*
X1240386Y662400D01*
X1240243Y663122D01*
X1240058Y663398D01*
X1240028Y663528D01*
X1239683Y664012D01*
X1239535Y664248D01*
X1239490Y664331D01*
X1239458Y664396D01*
X1239446Y664427D01*
X1239445Y664435D01*
X1239442Y664442D01*
X1239433Y664474D01*
X1239418Y664494D01*
Y683020D01*
X1241469Y685071D01*
X1241493Y685074D01*
X1241522Y685090D01*
X1241529Y685092D01*
X1241536Y685098D01*
X1241566Y685111D01*
X1241612Y685127D01*
X1242371Y685290D01*
X1242572Y685320D01*
X1242691Y685392D01*
X1243022Y685457D01*
X1243634Y685866D01*
X1244043Y686478D01*
X1244186Y687200D01*
X1244043Y687922D01*
X1243634Y688534D01*
X1243022Y688943D01*
X1242300Y689086D01*
D02*
G37*
G36*
X1148200Y658786D02*
X1147478Y658643D01*
X1146866Y658234D01*
X1146457Y657622D01*
X1146314Y656900D01*
X1146457Y656178D01*
X1146569Y656012D01*
Y653088D01*
X1146457Y652922D01*
X1146314Y652200D01*
X1146457Y651478D01*
X1146866Y650866D01*
X1147478Y650457D01*
X1148200Y650314D01*
X1148922Y650457D01*
X1149534Y650866D01*
X1149943Y651478D01*
X1150086Y652200D01*
X1149943Y652922D01*
X1149831Y653088D01*
Y656012D01*
X1149943Y656178D01*
X1150086Y656900D01*
X1149943Y657622D01*
X1149534Y658234D01*
X1148922Y658643D01*
X1148200Y658786D01*
D02*
G37*
G36*
X1327021Y590421D02*
X1317179D01*
Y580579D01*
X1327021D01*
Y590421D01*
D02*
G37*
%LPD*%
G36*
X1242476Y685962D02*
X1242255Y685929D01*
X1241436Y685753D01*
X1241329Y685716D01*
X1241241Y685678D01*
X1241173Y685639D01*
X1241124Y685600D01*
X1240699Y686024D01*
X1240739Y686073D01*
X1240778Y686141D01*
X1240816Y686229D01*
X1240853Y686336D01*
X1240890Y686461D01*
X1240961Y686770D01*
X1241062Y687376D01*
X1242476Y685962D01*
D02*
G37*
G36*
X1238807Y664301D02*
X1238828Y664225D01*
X1238863Y664136D01*
X1238912Y664034D01*
X1238975Y663920D01*
X1239143Y663651D01*
X1239499Y663151D01*
X1237500D01*
X1237633Y663330D01*
X1238088Y664034D01*
X1238137Y664136D01*
X1238172Y664225D01*
X1238193Y664301D01*
X1238200Y664363D01*
X1238800D01*
X1238807Y664301D01*
D02*
G37*
G36*
X1323084Y586484D02*
X1326037D01*
Y584516D01*
X1323084D01*
Y581563D01*
X1321116D01*
Y584516D01*
X1318163D01*
Y586484D01*
X1321116D01*
Y589437D01*
X1323084D01*
Y586484D01*
D02*
G37*
D10*
X1070800Y605400D02*
X1073600Y602600D01*
X1097200D01*
X1097300Y602500D02*
X1101000Y598800D01*
Y606400D01*
X1097200Y602600D02*
X1101000Y606400D01*
X1070800Y605400D02*
Y669900D01*
X1060800Y679900D02*
X1070800Y669900D01*
X955700Y642861D02*
X969561Y629000D01*
X994783Y653030D02*
X1000800Y647013D01*
X980217Y692400D02*
Y705784D01*
X974900Y711100D02*
X980217Y705784D01*
X963000Y711100D02*
X974900D01*
X991900Y722200D02*
X1003000Y711100D01*
X963000Y722200D02*
X991900D01*
X1000800Y635300D02*
Y647013D01*
Y635300D02*
X1005200Y630900D01*
X1022000D01*
Y619100D02*
Y630900D01*
X1021900Y642700D02*
X1062000Y630900D01*
X1046200Y619100D02*
X1062000D01*
X1023300Y596200D02*
X1046200Y619100D01*
X1000173Y596200D02*
X1023300D01*
X992717Y679900D02*
X1060800D01*
X980217Y692400D02*
X992717Y679900D01*
X955700Y692400D02*
X980217D01*
X955700Y642861D02*
Y652400D01*
D11*
X1317100Y801603D02*
Y840500D01*
X1313300Y844300D02*
X1317100Y840500D01*
X1328100Y778800D02*
X1334200D01*
X1323100Y783800D02*
X1328100Y778800D01*
X1323100Y783800D02*
Y795603D01*
X1317100Y801603D02*
X1323100Y795603D01*
X1321400Y799000D02*
X1328000D01*
X1318300Y802100D02*
X1321400Y799000D01*
X1318300Y802100D02*
Y844300D01*
X1311400Y778800D02*
Y802900D01*
X1298300Y816000D02*
X1311400Y802900D01*
X1318300Y844300D02*
X1319000Y843600D01*
X1298300Y816000D02*
Y844300D01*
X1284100Y783800D02*
X1284300Y784000D01*
X1284100Y779200D02*
Y783800D01*
X1282500Y777600D02*
X1284100Y779200D01*
X1239700Y777600D02*
X1282500D01*
X1118350Y819774D02*
X1120500Y821924D01*
X1118350Y815950D02*
Y819774D01*
X1160000Y831000D02*
X1177742D01*
X1155924Y826924D02*
X1160000Y831000D01*
X1153100Y826924D02*
X1155924D01*
X1177742Y831000D02*
X1181100Y827642D01*
X1160442Y832358D02*
X1181100D01*
X1156900Y835900D02*
X1160442Y832358D01*
X1120500Y816924D02*
X1123824D01*
X1125900Y819000D01*
Y833100D01*
X1141524Y831924D02*
X1153100D01*
X1140200Y830600D02*
X1141524Y831924D01*
X1140200Y817400D02*
Y830600D01*
X1125900Y833100D02*
X1128700Y835900D01*
X1156900D01*
X1212327Y811273D02*
X1215400Y808200D01*
X1140200Y817400D02*
X1144927Y812673D01*
X1227300D01*
X1234600Y748500D02*
Y750000D01*
X1235600Y751000D01*
X1245900D01*
X1057500Y803800D02*
Y830500D01*
X1124300Y857200D02*
Y871000D01*
X1134300Y857200D02*
Y871000D01*
X1144300Y857200D02*
Y871000D01*
X1154300Y857200D02*
Y871000D01*
X1164300Y857200D02*
Y871000D01*
X1174300Y857500D02*
Y871000D01*
X1232100Y864700D02*
X1268000D01*
X1274300Y871000D01*
X1241100Y877200D02*
X1258100D01*
X1264300Y871000D01*
X1195800Y841000D02*
X1198100Y843300D01*
X1231400D01*
X1193500Y834300D02*
Y842400D01*
X1195600Y844500D01*
X1230903D01*
X1231400Y843300D02*
X1242200Y854100D01*
X1248149D01*
X1219700Y856800D02*
X1228400Y848100D01*
X1252600Y852600D02*
Y858000D01*
Y852600D02*
X1254100Y851100D01*
X1211450Y857891D02*
X1214259Y860700D01*
X1248203D01*
X1251400Y857503D01*
Y852103D02*
Y857503D01*
Y852103D02*
X1255503Y848000D01*
X1257200D01*
X1212700Y852600D02*
Y853162D01*
X1210250Y855612D02*
X1212700Y853162D01*
X1210250Y855612D02*
Y858388D01*
X1213762Y861900D01*
X1248700D01*
X1252600Y858000D01*
X1254100Y851100D02*
X1255600D01*
X1218530Y824484D02*
X1230500Y812514D01*
X1221300Y823411D02*
X1231700Y813011D01*
Y800400D02*
Y813011D01*
Y800400D02*
X1233950Y798150D01*
X1245991D01*
X1230500Y799600D02*
Y812514D01*
Y799600D02*
X1234100Y796000D01*
X1245100D01*
X1201616Y824484D02*
X1218530D01*
X1221300Y823411D02*
Y838300D01*
X1238500Y745900D02*
Y748500D01*
X1239700Y744700D02*
X1245900D01*
X1238500Y745900D02*
X1239700Y744700D01*
X1238500Y683400D02*
X1242300Y687200D01*
X1238500Y662400D02*
Y683400D01*
X1144630Y811273D02*
X1212327D01*
X1133650Y817650D02*
X1138253D01*
X1144630Y811273D01*
X1118350Y815950D02*
X1120300Y814000D01*
X1130000D01*
X1133650Y817650D01*
X1243803Y857400D02*
X1248100D01*
X1230903Y844500D02*
X1243803Y857400D01*
X1213751Y855049D02*
X1216200Y852600D01*
X1218525Y857200D02*
X1219700Y856800D01*
X1213800Y857200D02*
X1218525D01*
X1211450Y856450D02*
Y857891D01*
Y856450D02*
X1212851Y855049D01*
X1213751D01*
D12*
X1033700Y818000D02*
Y827700D01*
Y832300D01*
X1221200Y744100D02*
Y754500D01*
X1135100Y810200D02*
Y815500D01*
X1221200Y754500D02*
Y762500D01*
X1283700Y804100D02*
X1292800D01*
X1244500Y826100D02*
Y840600D01*
X1248400Y880600D02*
X1255300Y887500D01*
X1294200D01*
X1298100Y883600D01*
X1158600Y816800D02*
X1167100Y825300D01*
X1158500Y816800D02*
X1158600D01*
X1221200Y762500D02*
Y766300D01*
X1209500Y778000D02*
X1221200Y766300D01*
X1167700Y795900D02*
Y799200D01*
Y795900D02*
X1169500Y794100D01*
X1210500D01*
X1213800Y790800D01*
X1148200Y652200D02*
Y656900D01*
X1301800Y707800D02*
X1306200D01*
X1235900Y707700D02*
X1242600D01*
X1235800Y707600D02*
X1235900Y707700D01*
D13*
X1228700Y730600D02*
Y736900D01*
D14*
X208100Y542897D02*
X214764D01*
X211432D01*
Y532900D01*
X223095Y542897D02*
X219763D01*
X218097Y541230D01*
Y534566D01*
X219763Y532900D01*
X223095D01*
X224761Y534566D01*
Y541230D01*
X223095Y542897D01*
X228094Y532900D02*
Y542897D01*
X233092D01*
X234758Y541230D01*
Y537898D01*
X233092Y536232D01*
X228094D01*
X248087Y542897D02*
Y532900D01*
X254752D01*
X258084D02*
Y539564D01*
X261416Y542897D01*
X264748Y539564D01*
Y532900D01*
Y537898D01*
X258084D01*
X268081Y542897D02*
Y541230D01*
X271413Y537898D01*
X274745Y541230D01*
Y542897D01*
X271413Y537898D02*
Y532900D01*
X284742Y542897D02*
X278077D01*
Y532900D01*
X284742D01*
X278077Y537898D02*
X281410D01*
X288074Y532900D02*
Y542897D01*
X293073D01*
X294739Y541230D01*
Y537898D01*
X293073Y536232D01*
X288074D01*
X291406D02*
X294739Y532900D01*
D15*
X1083000Y678400D02*
D03*
D16*
Y698085D02*
D03*
X1001715Y746200D02*
D03*
D17*
X1059227Y596200D02*
D03*
X1000173D02*
D03*
X1021900Y642700D02*
D03*
X1061900D02*
D03*
X1003000Y711100D02*
D03*
X963000D02*
D03*
X1010500Y705300D02*
D03*
Y665300D02*
D03*
X1062000Y630900D02*
D03*
X1022000D02*
D03*
Y619100D02*
D03*
X1062000D02*
D03*
D18*
X1055200Y670200D02*
D03*
X1055000Y705400D02*
D03*
D19*
X1041420Y670200D02*
D03*
X971558Y795100D02*
D03*
X971558Y741300D02*
D03*
X1041220Y705400D02*
D03*
X971558Y768200D02*
D03*
X971558Y822000D02*
D03*
D20*
X1014100Y788700D02*
D03*
Y798700D02*
D03*
X1026828Y788700D02*
D03*
Y798700D02*
D03*
X950500Y877000D02*
D03*
X1287800Y764100D02*
D03*
X979200Y577500D02*
D03*
D21*
X980217Y692400D02*
D03*
X994783Y653030D02*
D03*
D22*
X969561Y629000D02*
D03*
X989639D02*
D03*
D23*
X981400Y795100D02*
D03*
X981400Y741300D02*
D03*
X981400Y768200D02*
D03*
X1021400Y746200D02*
D03*
X981400Y822000D02*
D03*
D24*
X1023400Y710900D02*
D03*
D25*
Y659900D02*
D03*
X1014000Y722100D02*
D03*
D26*
X1294300Y871000D02*
D03*
X1284300D02*
D03*
X1274300D02*
D03*
X1264300D02*
D03*
X1254300D02*
D03*
X1244300D02*
D03*
X1234300D02*
D03*
X1224300D02*
D03*
X1214300D02*
D03*
X1204300D02*
D03*
X1194300D02*
D03*
X1184300D02*
D03*
X1174300D02*
D03*
X1164300D02*
D03*
X1154300D02*
D03*
X1144300D02*
D03*
X1134300D02*
D03*
X1124300D02*
D03*
X1294300Y784000D02*
D03*
X1284300D02*
D03*
X1274300D02*
D03*
X1264300D02*
D03*
X1254300D02*
D03*
X1244300D02*
D03*
X1234300D02*
D03*
X1224300D02*
D03*
X1214300D02*
D03*
X1204300D02*
D03*
X1194300D02*
D03*
X1184300D02*
D03*
X1174300D02*
D03*
X1164300D02*
D03*
X1154300D02*
D03*
X1144300D02*
D03*
X1134300D02*
D03*
X1124300D02*
D03*
D27*
X955700Y692400D02*
D03*
Y652400D02*
D03*
D28*
X963000Y722100D02*
D03*
D29*
X1332200Y725300D02*
D03*
Y715300D02*
D03*
Y645300D02*
D03*
Y635300D02*
D03*
Y625300D02*
D03*
Y615300D02*
D03*
Y605300D02*
D03*
Y595300D02*
D03*
Y585300D02*
D03*
Y575300D02*
D03*
Y565300D02*
D03*
X1322200Y725300D02*
D03*
Y715300D02*
D03*
Y695300D02*
D03*
Y635300D02*
D03*
Y625300D02*
D03*
Y615300D02*
D03*
Y605300D02*
D03*
Y595300D02*
D03*
Y575300D02*
D03*
Y565300D02*
D03*
X1312200Y725300D02*
D03*
Y715300D02*
D03*
Y695300D02*
D03*
Y685300D02*
D03*
Y675300D02*
D03*
Y655300D02*
D03*
Y645300D02*
D03*
Y635300D02*
D03*
Y625300D02*
D03*
Y615300D02*
D03*
Y605300D02*
D03*
Y595300D02*
D03*
Y585300D02*
D03*
Y575300D02*
D03*
Y565300D02*
D03*
X1302200Y675300D02*
D03*
Y635300D02*
D03*
Y625300D02*
D03*
Y615300D02*
D03*
Y605300D02*
D03*
Y595300D02*
D03*
Y585300D02*
D03*
Y575300D02*
D03*
Y565300D02*
D03*
X1292200Y725300D02*
D03*
Y715300D02*
D03*
Y695300D02*
D03*
Y675300D02*
D03*
Y625300D02*
D03*
Y615300D02*
D03*
Y605300D02*
D03*
Y595300D02*
D03*
Y585300D02*
D03*
Y575300D02*
D03*
Y565300D02*
D03*
X1282200Y725300D02*
D03*
Y715300D02*
D03*
Y655300D02*
D03*
Y645300D02*
D03*
Y635300D02*
D03*
Y625300D02*
D03*
Y615300D02*
D03*
Y605300D02*
D03*
Y595300D02*
D03*
Y585300D02*
D03*
Y575300D02*
D03*
Y565300D02*
D03*
X1272200Y825300D02*
D03*
Y725300D02*
D03*
Y715300D02*
D03*
Y695300D02*
D03*
Y685300D02*
D03*
Y655300D02*
D03*
Y645300D02*
D03*
Y635300D02*
D03*
Y625300D02*
D03*
Y615300D02*
D03*
Y605300D02*
D03*
Y595300D02*
D03*
Y585300D02*
D03*
Y575300D02*
D03*
Y565300D02*
D03*
X1262200Y835300D02*
D03*
Y725300D02*
D03*
Y715300D02*
D03*
Y655300D02*
D03*
Y645300D02*
D03*
Y635300D02*
D03*
Y625300D02*
D03*
Y615300D02*
D03*
Y605300D02*
D03*
Y595300D02*
D03*
Y585300D02*
D03*
Y575300D02*
D03*
Y565300D02*
D03*
X1252200Y725300D02*
D03*
Y715300D02*
D03*
Y695300D02*
D03*
Y655300D02*
D03*
Y645300D02*
D03*
Y635300D02*
D03*
Y625300D02*
D03*
Y615300D02*
D03*
Y605300D02*
D03*
Y595300D02*
D03*
Y585300D02*
D03*
Y575300D02*
D03*
Y565300D02*
D03*
X1242200Y655300D02*
D03*
Y645300D02*
D03*
Y635300D02*
D03*
Y625300D02*
D03*
Y615300D02*
D03*
Y605300D02*
D03*
Y595300D02*
D03*
Y585300D02*
D03*
Y575300D02*
D03*
Y565300D02*
D03*
X1232200Y725300D02*
D03*
Y715300D02*
D03*
Y655300D02*
D03*
Y645300D02*
D03*
Y635300D02*
D03*
Y625300D02*
D03*
Y615300D02*
D03*
Y605300D02*
D03*
Y595300D02*
D03*
Y585300D02*
D03*
Y575300D02*
D03*
Y565300D02*
D03*
X1222200Y725300D02*
D03*
Y705300D02*
D03*
Y645300D02*
D03*
Y635300D02*
D03*
Y625300D02*
D03*
Y615300D02*
D03*
Y605300D02*
D03*
Y595300D02*
D03*
Y585300D02*
D03*
Y575300D02*
D03*
Y565300D02*
D03*
X1212200Y725300D02*
D03*
Y705300D02*
D03*
Y695300D02*
D03*
Y625300D02*
D03*
Y615300D02*
D03*
Y605300D02*
D03*
Y595300D02*
D03*
Y585300D02*
D03*
Y575300D02*
D03*
Y565300D02*
D03*
X1202200Y725300D02*
D03*
Y605300D02*
D03*
Y595300D02*
D03*
Y585300D02*
D03*
Y575300D02*
D03*
Y565300D02*
D03*
X1192200Y725300D02*
D03*
Y705300D02*
D03*
Y695300D02*
D03*
Y685300D02*
D03*
Y625300D02*
D03*
Y615300D02*
D03*
Y585300D02*
D03*
Y575300D02*
D03*
Y565300D02*
D03*
X1182200Y725300D02*
D03*
Y685300D02*
D03*
Y675300D02*
D03*
Y645300D02*
D03*
Y585300D02*
D03*
Y575300D02*
D03*
Y565300D02*
D03*
X1172200Y725300D02*
D03*
Y705300D02*
D03*
Y695300D02*
D03*
Y665300D02*
D03*
Y645300D02*
D03*
Y595300D02*
D03*
Y585300D02*
D03*
Y575300D02*
D03*
Y565300D02*
D03*
X1162200Y725300D02*
D03*
Y705300D02*
D03*
Y695300D02*
D03*
Y675300D02*
D03*
Y665300D02*
D03*
Y645300D02*
D03*
Y635300D02*
D03*
Y625300D02*
D03*
Y585300D02*
D03*
Y575300D02*
D03*
Y565300D02*
D03*
X1152200Y725300D02*
D03*
Y705300D02*
D03*
Y695300D02*
D03*
Y665300D02*
D03*
Y645300D02*
D03*
Y635300D02*
D03*
Y625300D02*
D03*
Y615300D02*
D03*
Y595300D02*
D03*
Y585300D02*
D03*
Y575300D02*
D03*
Y565300D02*
D03*
X1142200Y725300D02*
D03*
Y705300D02*
D03*
Y695300D02*
D03*
Y645300D02*
D03*
Y635300D02*
D03*
Y625300D02*
D03*
Y595300D02*
D03*
Y585300D02*
D03*
Y575300D02*
D03*
Y565300D02*
D03*
X1132200Y725300D02*
D03*
Y675300D02*
D03*
Y665300D02*
D03*
Y645300D02*
D03*
Y635300D02*
D03*
Y625300D02*
D03*
Y615300D02*
D03*
Y595300D02*
D03*
Y585300D02*
D03*
Y575300D02*
D03*
Y565300D02*
D03*
X1122200Y725300D02*
D03*
Y715300D02*
D03*
Y705300D02*
D03*
Y695300D02*
D03*
Y685300D02*
D03*
Y675300D02*
D03*
Y645300D02*
D03*
Y635300D02*
D03*
Y625300D02*
D03*
Y615300D02*
D03*
Y595300D02*
D03*
Y585300D02*
D03*
Y575300D02*
D03*
Y565300D02*
D03*
X1112200Y725300D02*
D03*
Y715300D02*
D03*
Y705300D02*
D03*
Y695300D02*
D03*
Y685300D02*
D03*
Y675300D02*
D03*
Y645300D02*
D03*
Y635300D02*
D03*
Y625300D02*
D03*
Y595300D02*
D03*
Y585300D02*
D03*
Y575300D02*
D03*
Y565300D02*
D03*
X1102200Y725300D02*
D03*
Y715300D02*
D03*
Y705300D02*
D03*
Y695300D02*
D03*
Y685300D02*
D03*
Y675300D02*
D03*
Y665300D02*
D03*
Y645300D02*
D03*
Y635300D02*
D03*
Y625300D02*
D03*
Y615300D02*
D03*
Y595300D02*
D03*
Y585300D02*
D03*
Y575300D02*
D03*
Y565300D02*
D03*
X1311600Y768800D02*
D03*
X1334200Y778800D02*
D03*
X1328000Y799000D02*
D03*
X1311400Y778800D02*
D03*
X1298300Y844300D02*
D03*
X1313300D02*
D03*
X1318300D02*
D03*
X1264000Y808000D02*
D03*
Y844000D02*
D03*
X1278000Y826000D02*
D03*
Y808000D02*
D03*
Y844000D02*
D03*
X1033700Y818000D02*
D03*
Y832300D02*
D03*
Y827700D02*
D03*
X1239700Y777600D02*
D03*
X1168900Y807200D02*
D03*
X1221200Y744100D02*
D03*
Y754500D02*
D03*
X1120500Y821924D02*
D03*
Y816924D02*
D03*
X1153100Y831924D02*
D03*
Y826924D02*
D03*
X1227300Y812673D02*
D03*
X1181100Y827642D02*
D03*
Y832358D02*
D03*
X1215400Y808200D02*
D03*
X1201616Y824484D02*
D03*
X1221300Y838300D02*
D03*
X1242500Y748500D02*
D03*
X1234600D02*
D03*
X1238500D02*
D03*
Y662400D02*
D03*
X1057500Y830500D02*
D03*
Y803800D02*
D03*
X1124300Y857200D02*
D03*
X1134300D02*
D03*
X1144300D02*
D03*
X1154300D02*
D03*
X1164300D02*
D03*
X1174300Y857500D02*
D03*
X1232100Y864700D02*
D03*
X1241100Y877200D02*
D03*
X1195800Y841000D02*
D03*
X1193500Y834300D02*
D03*
X1248149Y854100D02*
D03*
X1228400Y848100D02*
D03*
X1216200Y852600D02*
D03*
X1212700D02*
D03*
X1255600Y851100D02*
D03*
X1257200Y848000D02*
D03*
X1245100Y796000D02*
D03*
X1247300Y798200D02*
D03*
X1245900Y751000D02*
D03*
Y744700D02*
D03*
X1242300Y687200D02*
D03*
X1005372Y817300D02*
D03*
X1175839Y841900D02*
D03*
X1229300Y857561D02*
D03*
X1244000Y844461D02*
D03*
X1245661Y818300D02*
D03*
X1256361Y812700D02*
D03*
X1256361Y798900D02*
D03*
X1256700Y817900D02*
D03*
Y840900D02*
D03*
X1151900Y816924D02*
D03*
X1134500Y838600D02*
D03*
X1057500Y839621D02*
D03*
Y849464D02*
D03*
Y844400D02*
D03*
X1037900Y846000D02*
D03*
X1010293Y843200D02*
D03*
X1015939Y837100D02*
D03*
X990700Y873900D02*
D03*
X975600Y866800D02*
D03*
X966500Y852200D02*
D03*
X972500D02*
D03*
X978600D02*
D03*
X1000700Y858200D02*
D03*
X982700D02*
D03*
X1197800Y805400D02*
D03*
X1184500Y804100D02*
D03*
X1238200Y818500D02*
D03*
X1217500Y840600D02*
D03*
X1221608Y850900D02*
D03*
X1313300Y809600D02*
D03*
X1308300D02*
D03*
X1298300D02*
D03*
X1333401Y812800D02*
D03*
X1336600Y828333D02*
D03*
X1135100Y810200D02*
D03*
Y815500D02*
D03*
X1221200Y762500D02*
D03*
X1283700Y804100D02*
D03*
X1292800D02*
D03*
X1244500Y840600D02*
D03*
Y826100D02*
D03*
X1298100Y883600D02*
D03*
X1248400Y880600D02*
D03*
X1167100Y825300D02*
D03*
X1158500Y816800D02*
D03*
X1209500Y778000D02*
D03*
X1218200Y790800D02*
D03*
X1167700Y799200D02*
D03*
X1213800Y790800D02*
D03*
X1148200Y652200D02*
D03*
Y656900D02*
D03*
X1306200Y707800D02*
D03*
X1301800D02*
D03*
X1242600Y707700D02*
D03*
X1235800Y707600D02*
D03*
X1248100Y857400D02*
D03*
X1213800Y857200D02*
D03*
D30*
X1198046Y655539D02*
D03*
X1202377Y655539D02*
D03*
X1206708D02*
D03*
X1211039D02*
D03*
X1215369D02*
D03*
X1219700Y655539D02*
D03*
X1198046Y659869D02*
D03*
X1202377D02*
D03*
X1206708D02*
D03*
X1211039D02*
D03*
X1215369D02*
D03*
X1219700Y659869D02*
D03*
X1198046Y664200D02*
D03*
X1202377D02*
D03*
X1206708D02*
D03*
X1211039D02*
D03*
X1215369Y664200D02*
D03*
X1219700Y664200D02*
D03*
X1198046Y668531D02*
D03*
X1202377D02*
D03*
X1206708D02*
D03*
X1211039Y668531D02*
D03*
X1215369Y668531D02*
D03*
X1219700Y668531D02*
D03*
X1198046Y672861D02*
D03*
X1202377D02*
D03*
X1206708D02*
D03*
X1211039Y672861D02*
D03*
X1215369Y672861D02*
D03*
X1219700D02*
D03*
X1198046Y677192D02*
D03*
X1202377D02*
D03*
X1206708D02*
D03*
X1211039Y677192D02*
D03*
X1215369Y677192D02*
D03*
X1219700D02*
D03*
X991792Y858200D02*
D03*
M02*
